<?xml version="1.0" encoding="UTF-8"?>
<svg height="128px" viewBox="0 0 128 128" width="128px" xmlns="http://www.w3.org/2000/svg" xmlns:xlink="http://www.w3.org/1999/xlink">
    <linearGradient id="a" gradientUnits="userSpaceOnUse" x1="34.756302" x2="93.243698" y1="28" y2="86.216843">
        <stop offset="0" stop-color="#ffb16c"/>
        <stop offset="1" stop-color="#ff9daf"/>
    </linearGradient>
    <path d="m 124 66 c 0 33.136719 -26.863281 60 -60 60 s -60 -26.863281 -60 -60 s 26.863281 -60 60 -60 s 60 26.863281 60 60 z m 0 0" fill="#d7d5d5"/>
    <path d="m 124 64 c 0 33.136719 -26.863281 60 -60 60 s -60 -26.863281 -60 -60 s 26.863281 -60 60 -60 s 60 26.863281 60 60 z m 0 0" fill="#ffffff"/>
    <g fill="url(#a)">
        <path d="m 43.757812 28 c 4.96875 0 9 4.03125 9 9 v 54 c 0 4.96875 -4.03125 9 -9 9 c -4.972656 0 -9 -4.03125 -9 -9 v -54 c 0 -4.96875 4.027344 -9 9 -9 z m 0 0"/>
        <path d="m 84.257812 28.011719 c -2.144531 0.09375 -4.195312 0.882812 -5.851562 2.25 l -21.148438 20.25 v 24.75 l 33.75 -31.5 c 3.144532 -3.847657 2.953126 -9.429688 -0.453124 -13.050781 c -1.9375 -1.835938 -4.53125 -2.808594 -7.199219 -2.699219 z m -13.5 40.5 l -13.5 13.5 l 15.75 15.75 c 3.84375 3.144531 9.429688 2.953125 13.046876 -0.453125 c 3.40625 -3.617188 3.597656 -9.203125 0.453124 -13.046875 z m 0 0"/>
    </g>
</svg>
