<?xml version="1.0" encoding="UTF-8"?>
<svg height="128px" viewBox="0 0 128 128" width="128px" xmlns="http://www.w3.org/2000/svg" xmlns:xlink="http://www.w3.org/1999/xlink">
    <linearGradient id="a" gradientUnits="userSpaceOnUse" x1="4" x2="123.87525203125" y1="6" y2="126.0207421875">
        <stop offset="0" stop-color="#b8161e"/>
        <stop offset="1" stop-color="#175cb0"/>
    </linearGradient>
    <linearGradient id="b" gradientUnits="userSpaceOnUse" x1="4" x2="123.87525203125" y1="4.000015" y2="124.0207571875">
        <stop offset="0" stop-color="#e01b24"/>
        <stop offset="1" stop-color="#1c71d8"/>
    </linearGradient>
    <path d="m 64 6 c 33.136719 0 60 26.863281 60 60 s -26.863281 60 -60 60 s -60 -26.863281 -60 -60 s 26.863281 -60 60 -60 z m 0 0" fill="url(#a)"/>
    <path d="m 64 4 c 33.136719 0 60 26.863281 60 60 s -26.863281 60 -60 60 s -60 -26.863281 -60 -60 s 26.863281 -60 60 -60 z m 0 0" fill="url(#b)"/>
    <g fill="#f6f5f4">
        <path d="m 56.285156 52.429688 c -2.125 0 -3.855468 1.730468 -3.855468 3.855468 c 0 2.140625 1.730468 3.859375 3.855468 3.859375 s 3.859375 -1.71875 3.859375 -3.859375 c 0 -2.125 -1.734375 -3.855468 -3.859375 -3.855468 z m 12.203125 8.390624 l -6.75 9.402344 c -0.390625 0.558594 -1.007812 0.902344 -1.6875 0.949219 c -0.675781 0.058594 -1.339843 -0.195313 -1.820312 -0.679687 l -1.582031 -1.609376 c -0.710938 -0.738281 -1.71875 -1.101562 -2.726563 -1.011718 c -1.011719 0.105468 -1.929687 0.648437 -2.488281 1.492187 l -2.863282 4.28125 v 3.855469 c 0 1.929688 1.929688 1.929688 1.929688 1.929688 h 27 s 1.824219 -0.121094 1.929688 -1.929688 v -8.285156 c 0 -0.9375 -0.316407 -1.839844 -0.921876 -2.5625 l -4.925781 -5.996094 c -0.632812 -0.769531 -1.582031 -1.191406 -2.574219 -1.160156 c -1.011718 0.027344 -1.929687 0.527344 -2.519531 1.324218 z m 0 0"/>
        <path d="m 48.570312 37 c -6.34375 0 -11.570312 5.226562 -11.570312 11.570312 v 30.859376 c 0 6.355468 5.226562 11.570312 11.570312 11.570312 h 30.859376 c 6.34375 0 11.570312 -5.214844 11.570312 -11.570312 v -30.859376 c 0 -6.34375 -5.226562 -11.570312 -11.570312 -11.570312 z m 0 7.714844 h 30.859376 c 2.199218 0 3.855468 1.65625 3.855468 3.855468 v 30.859376 c 0 2.214843 -1.65625 3.855468 -3.855468 3.855468 h -30.859376 c -2.199218 0 -3.855468 -1.640625 -3.855468 -3.855468 v -30.859376 c 0 -2.199218 1.65625 -3.855468 3.855468 -3.855468 z m 0 0"/>
    </g>
</svg>
