<?xml version="1.0" encoding="UTF-8"?>
<svg height="128px" viewBox="0 0 128 128" width="128px" xmlns="http://www.w3.org/2000/svg">
    <path d="m 64 6 c 33.140625 0 60 26.859375 60 60 s -26.871094 60 -60 60 s -60 -26.859375 -60 -60 s 26.859375 -60 60 -60" fill="#d7d5d5"/>
    <path d="m 64 4 c 33.140625 0 60 26.859375 60 60 s -26.871094 60 -60 60 s -60 -26.859375 -60 -60 s 26.859375 -60 60 -60" fill="#ffffff"/>
    <path d="m 62.402344 20.070312 c -2.625 1.683594 -3.382813 5.175782 -1.691406 7.792969 c 9.300781 14.402344 11.496093 25.265625 10.542968 34.785157 c -3.847656 18.230468 -12.214844 21.929687 -19.527344 21.929687 c -7.140624 0 -5.230468 -11.75 0.136719 -15.191406 c 3.203125 -2 7.308594 -3.296875 10.457031 -3.296875 c 3.121094 0 5.648438 -2.523438 5.648438 -5.632813 c 0 -3.113281 -2.527344 -5.636719 -5.648438 -5.636719 c -3.679687 0 -7.285156 0.773438 -10.65625 2.089844 c 0.6875 -3.246094 0.941407 -6.757812 0.054688 -10.484375 c -1.351562 -5.664062 -5.238281 -11.074219 -11.992188 -16.320312 c -1.179687 -0.917969 -2.679687 -1.332031 -4.167968 -1.148438 c -1.488282 0.183594 -2.839844 0.949219 -3.761719 2.128907 c -1.914063 2.457031 -1.472656 5.996093 0.992187 7.910156 c 5.5 4.269531 7.316407 7.433594 7.9375 10.035156 c 0.621094 2.601562 0.121094 5.394531 -1.128906 9.230469 c -1.59375 5.171875 -3.445312 9.785156 -4.253906 14.210937 c -0.398438 2.179688 -0.433594 4.550782 -0.539062 6.445313 c -3.960938 -3.859375 -5.507813 -8.957031 -5.507813 -16.40625 c -0.003906 -3.109375 -2.53125 -5.632813 -5.652344 -5.632813 c -3.117187 0.003906 -5.644531 2.523438 -5.644531 5.632813 c 0 10.171875 2.972656 19.851562 10.945312 26.308593 c 7.21875 6.875 25.566407 4.332032 25.566407 15.371094 c 0 3.113282 4.5625 4.632813 7.679687 4.632813 c 3.203125 0 7.226563 -2.140625 7.226563 -4.632813 c 0 -12.523437 13.199219 -20.132812 34.925781 -20.101562 c 3.121094 0.003906 5.652344 -2.515625 5.65625 -5.625 c 0.003906 -3.113282 -2.519531 -5.640625 -5.640625 -5.648438 c -1.484375 0 -2.933594 0.050782 -4.359375 0.136719 c 2.425781 -5.714844 3.503906 -12.003906 3.28125 -18.796875 c -0.101562 -3.109375 -2.714844 -5.546875 -5.832031 -5.445312 c -3.121094 0.101562 -5.566407 2.707031 -5.464844 5.820312 c 0.296875 8.894531 -0.039063 16.835938 -6.664063 21.023438 c -1.882812 1.1875 -4.074218 2.21875 -6.152343 2.21875 c 1.613281 -4.386719 2.832031 -9.015626 3.328125 -14.007813 c 0.320312 -3.183594 0.351562 -6.96875 -0.011719 -9.90625 c -0.5625 -4.554687 -1.242187 -9.71875 0.484375 -13.609375 c 1.554688 -3.351562 5.035156 -4.753906 10.140625 -4.753906 c 3.121094 -0.003906 5.644531 -2.523438 5.648437 -5.632813 c 0 -3.113281 -2.527343 -5.636719 -5.648437 -5.640625 c -7.589844 0 -13.34375 3.996094 -16.605469 8.824219 c -1.707031 -3.644531 -3.785156 -7.398437 -6.292968 -11.285156 c -0.8125 -1.253907 -2.089844 -2.136719 -3.550782 -2.457031 c -0.726562 -0.15625 -1.476562 -0.167969 -2.207031 -0.039063 c -0.730469 0.132813 -1.425781 0.40625 -2.050781 0.804687 z m 0 0" fill="#ef7f31"/>
</svg>
