<?xml version="1.0" encoding="UTF-8"?>
<svg height="128px" viewBox="0 0 128 128" width="128px" xmlns="http://www.w3.org/2000/svg" xmlns:xlink="http://www.w3.org/1999/xlink">
    <filter id="a" height="100%" width="100%" x="0%" y="0%">
        <feColorMatrix color-interpolation-filters="sRGB" values="0 0 0 0 1 0 0 0 0 1 0 0 0 0 1 0 0 0 1 0"/>
    </filter>
    <radialGradient id="b" cx="64.000999" cy="224.800903" gradientTransform="matrix(1 0 0 1.171968 0 -221.459366)" gradientUnits="userSpaceOnUse" r="32.000999">
        <stop offset="0" stop-color="#9a9996"/>
        <stop offset="0.597678" stop-color="#c0bfbc"/>
        <stop offset="0.800034" stop-color="#deddda"/>
        <stop offset="1" stop-color="#c0bfbc"/>
    </radialGradient>
    <linearGradient id="c" gradientUnits="userSpaceOnUse" x1="12.000004" x2="116" y1="79" y2="79">
        <stop offset="0" stop-color="#147a66"/>
        <stop offset="0.0503642" stop-color="#21ccaa"/>
        <stop offset="0.0986909" stop-color="#178f77"/>
        <stop offset="0.901927" stop-color="#178f77"/>
        <stop offset="0.946088" stop-color="#21ccaa"/>
        <stop offset="1" stop-color="#147a66"/>
    </linearGradient>
    <mask id="d">
        <g filter="url(#a)">
            <rect fill-opacity="0.7" height="153.6" width="153.6" x="-12.8" y="-12.8"/>
        </g>
    </mask>
    <clipPath id="e">
        <rect height="152" width="192"/>
    </clipPath>
    <mask id="f">
        <g filter="url(#a)">
            <rect fill-opacity="0.7" height="153.6" width="153.6" x="-12.8" y="-12.8"/>
        </g>
    </mask>
    <clipPath id="g">
        <rect height="152" width="192"/>
    </clipPath>
    <path d="m 64.003906 4 c -17.582031 0 -32 14.421875 -32 32 h -0.003906 v 8 h 16 v -8 h 0.003906 c 0 -8.929688 7.066406 -16 16 -16 c 8.929688 0 16 7.070312 16 16 v 8 h 16 v -8 c 0 -17.578125 -14.421875 -32 -32 -32 z m 0 0" fill="url(#b)"/>
    <path d="m 20 42 h 88 c 4.417969 0 8 3.582031 8 8 v 58 c 0 4.417969 -3.582031 8 -8 8 h -88 c -4.417969 0 -8 -3.582031 -8 -8 v -58 c 0 -4.417969 3.582031 -8 8 -8 z m 0 0" fill="url(#c)"/>
    <path d="m 20 38 h 88 c 4.417969 0 8 3.582031 8 8 v 58 c 0 4.417969 -3.582031 8 -8 8 h -88 c -4.417969 0 -8 -3.582031 -8 -8 v -58 c 0 -4.417969 3.582031 -8 8 -8 z m 0 0" fill="#1eb899"/>
    <g mask="url(#d)">
        <g clip-path="url(#e)" transform="matrix(1 0 0 1 -8 -16)">
            <path d="m 72.230469 81 c -2.882813 -0.007812 -5.78125 1.4375 -8.695313 4.363281 l -41.09375 40.40625 l 1.222656 0.953125 l 39.871094 -39.183594 c 5.832032 -5.855468 11.578125 -5.78125 17.332032 0 l 39.5 39.167969 l 1.207031 -0.957031 l -40.707031 -40.386719 c -2.875 -2.890625 -5.75 -4.351562 -8.636719 -4.363281 z m 0 0" fill="#ffffff"/>
        </g>
    </g>
    <path d="m 63.773438 85 c 2.882812 0.007812 5.777343 -1.433594 8.691406 -4.351562 l 41.179687 -40.335938 s -2.046875 -2.3125 -5.632812 -2.3125 h -88.011719 c -3.601562 0 -5.636719 2.34375 -5.636719 2.34375 l 40.769531 40.304688 c 2.878907 2.882812 5.753907 4.339843 8.640626 4.351562 z m 0 0" fill="#1eb899"/>
    <g mask="url(#f)">
        <g clip-path="url(#g)" transform="matrix(1 0 0 1 -8 -16)">
            <path d="m 71.769531 101.144531 c 2.882813 0.007813 5.78125 -1.4375 8.695313 -4.363281 l 41.179687 -40.46875 l -1.238281 -0.957031 l -39.941406 39.25 c -5.832032 5.855469 -11.578125 5.78125 -17.335938 0 l -39.554687 -39.246094 l -1.210938 0.984375 l 40.765625 40.4375 c 2.878906 2.890625 5.753906 4.351562 8.640625 4.363281 z m 0 0" fill="#ffffff"/>
        </g>
    </g>
</svg>
