<?xml version="1.0" encoding="UTF-8"?>
<svg height="128px" viewBox="0 0 128 128" width="128px" xmlns="http://www.w3.org/2000/svg" xmlns:xlink="http://www.w3.org/1999/xlink">
    <linearGradient id="a" gradientTransform="matrix(0.232143 0 0 0.328947 -8.56688 263.826965)" gradientUnits="userSpaceOnUse" x1="88.595886" x2="536.595886" y1="-449.394012" y2="-449.394012">
        <stop offset="0" stop-color="#a05a03"/>
        <stop offset="0.05" stop-color="#f08705"/>
        <stop offset="0.1" stop-color="#b46604"/>
        <stop offset="0.9" stop-color="#b46604"/>
        <stop offset="0.95" stop-color="#f08705"/>
        <stop offset="1" stop-color="#a05a03"/>
    </linearGradient>
    <path d="m 20 16 h 88 c 4.417969 0 8 3.582031 8 8 v 84 c 0 4.417969 -3.582031 8 -8 8 h -88 c -4.417969 0 -8 -3.582031 -8 -8 v -84 c 0 -4.417969 3.582031 -8 8 -8 z m 0 0" fill="url(#a)"/>
    <path d="m 20 12 h 88 c 4.417969 0 8 3.582031 8 8 v 84 c 0 4.417969 -3.582031 8 -8 8 h -88 c -4.417969 0 -8 -3.582031 -8 -8 v -84 c 0 -4.417969 3.582031 -8 8 -8 z m 0 0" fill="#f08705"/>
    <path d="m 93.921875 70.75 h -9.8125 l -10.386719 -17.671875 c 2.308594 -0.460937 4.039063 -2.539063 4.039063 -4.964844 v -13.339843 c 0 -2.828126 -2.25 -5.082032 -5.078125 -5.082032 h -17.3125 c -2.824219 0 -5.078125 2.253906 -5.078125 5.082032 v 13.339843 c 0 2.480469 1.734375 4.503907 3.984375 4.964844 l -10.386719 17.726563 h -9.8125 c -2.828125 0 -5.078125 2.253906 -5.078125 5.082031 v 13.339843 c 0 2.828126 2.25 5.082032 5.078125 5.082032 h 17.3125 c 2.828125 0 5.078125 -2.253906 5.078125 -5.082032 v -13.339843 c 0 -2.828125 -2.25 -5.082031 -5.078125 -5.082031 h -1.671875 l 10.269531 -17.554688 h 8.023438 l 10.328125 17.554688 h -1.730469 c -2.828125 0 -5.078125 2.253906 -5.078125 5.082031 v 13.339843 c 0 2.828126 2.25 5.082032 5.078125 5.082032 h 17.3125 c 2.828125 0 5.078125 -2.253906 5.078125 -5.082032 v -13.339843 c 0 -2.828125 -2.25 -5.136719 -5.078125 -5.136719 z m 0 0" fill="#ffffff"/>
</svg>
