<?xml version="1.0" encoding="UTF-8"?>
<svg height="128px" viewBox="0 0 128 128" width="128px" xmlns="http://www.w3.org/2000/svg" xmlns:xlink="http://www.w3.org/1999/xlink">
    <linearGradient id="a" gradientUnits="userSpaceOnUse" x1="12" x2="116.000424" y1="116" y2="115.999763">
        <stop offset="0" stop-color="#c21f42"/>
        <stop offset="0.050263" stop-color="#fe2857"/>
        <stop offset="0.1" stop-color="#d62249"/>
        <stop offset="0.9" stop-color="#d46c18"/>
        <stop offset="0.95" stop-color="#ff821d"/>
        <stop offset="1" stop-color="#bf6116"/>
    </linearGradient>
    <linearGradient id="b" gradientUnits="userSpaceOnUse" x1="27" x2="101" y1="27" y2="97">
        <stop offset="0" stop-color="#7255f7"/>
        <stop offset="0.24519" stop-color="#fe2857"/>
        <stop offset="0.752414" stop-color="#fe2857"/>
        <stop offset="1" stop-color="#fc801d"/>
    </linearGradient>
    <path d="m 20 16 h 88 c 4.417969 0 8 3.582031 8 8 v 84 c 0 4.417969 -3.582031 8 -8 8 h -88 c -4.417969 0 -8 -3.582031 -8 -8 v -84 c 0 -4.417969 3.582031 -8 8 -8 z m 0 0" fill="url(#a)"/>
    <path d="m 20 12 h 88 c 4.417969 0 8 3.582031 8 8 v 84 c 0 4.417969 -3.582031 8 -8 8 h -88 c -4.417969 0 -8 -3.582031 -8 -8 v -84 c 0 -4.417969 3.582031 -8 8 -8 z m 0 0" fill="url(#b)"/>
    <path d="m 32.691406 27 h 62.617188 c 3.144531 0 5.691406 2.507812 5.691406 5.601562 v 58.796876 c 0 3.09375 -2.546875 5.601562 -5.691406 5.601562 h -62.617188 c -3.144531 0 -5.691406 -2.507812 -5.691406 -5.601562 v -58.796876 c 0 -3.09375 2.546875 -5.601562 5.691406 -5.601562 z m 0 0" fill-opacity="0.980392"/>
    <g fill="#ffffff">
        <path d="m 64.019531 84.734375 h -26.527343 v 4.519531 h 26.527343 z m 0 0"/>
        <path d="m 63.816406 35.335938 h 6.621094 l 7.234375 11.648437 l 7.234375 -11.648437 h 6.621094 v 27.585937 h -6.132813 v -18.023437 l -7.722656 11.773437 h -0.125 l -7.722656 -11.648437 v 17.898437 h -6.007813 z m 0 0"/>
        <path d="m 36.597656 35.335938 h 12.628906 c 3.554688 0 6.128907 0.980468 8.089844 2.820312 c 1.59375 1.59375 2.332032 3.679688 2.332032 6.253906 v 0.121094 c 0 2.207031 -0.492188 4.046875 -1.59375 5.519531 c -1.105469 1.347657 -2.574219 2.449219 -4.292969 3.0625 l 6.742187 9.808594 h -7.109375 l -5.761719 -8.457031 h -5.027343 v 8.457031 h -6.132813 v -27.585937 z m 12.261719 13.363281 c 1.46875 0 2.695313 -0.367188 3.433594 -1.101563 c 0.855469 -0.734375 1.222656 -1.71875 1.222656 -2.820312 v -0.121094 c 0 -1.351562 -0.367187 -2.332031 -1.222656 -2.945312 c -0.859375 -0.613282 -1.964844 -0.980469 -3.558594 -0.980469 h -6.007813 v 7.96875 z m 0 0"/>
    </g>
</svg>
