<?xml version="1.0" encoding="UTF-8"?>
<svg height="128px" viewBox="0 0 128 128" width="128px" xmlns="http://www.w3.org/2000/svg" xmlns:xlink="http://www.w3.org/1999/xlink">
    <filter id="a" height="100%" width="100%" x="0%" y="0%">
        <feColorMatrix color-interpolation-filters="sRGB" values="0 0 0 0 1 0 0 0 0 1 0 0 0 0 1 0 0 0 1 0"/>
    </filter>
    <mask id="b">
        <g filter="url(#a)">
            <rect fill-opacity="0.1" height="153.6" width="153.6" x="-12.8" y="-12.8"/>
        </g>
    </mask>
    <clipPath id="c">
        <rect height="152" width="192"/>
    </clipPath>
    <path d="m 14.078125 32.71875 c -1.03125 1.570312 -1.988281 3.25 -2.953125 4.914062 c -4.664062 8.707032 -7.324219 15.054688 -7.113281 28.3125 c 0 33.15625 26.851562 60.035157 59.972656 60.035157 c 0.308594 -0.011719 0.613281 -0.019531 0.921875 -0.035157 l 28.394531 -47.269531 c -2.273437 3.707031 -11.75 8.457031 -15.796875 10.792969 c -12.941406 7.480469 -29.375 2.648438 -36.847656 -10.308594 z m 0 0" fill="#1b6f33"/>
    <path d="m 64.050781 35.964844 c -0.066406 0 9.519531 4.277344 13.5625 6.617187 c 10.335938 5.972657 11.414063 27.304688 11.4375 35.9375 l 1.730469 1.003907 l -1.765625 3.058593 v 0.140625 l -0.667969 1.015625 l -24.363281 35.316407 v 6.929687 c 0.160156 0.003906 0.316406 0.015625 0.476563 0.015625 c 0.828124 -0.011719 1.65625 -0.042969 2.484374 -0.09375 c 0.480469 -0.019531 0.960938 -0.023438 1.441407 -0.054688 c 1.886719 -0.140624 3.769531 -0.371093 5.636719 -0.6875 c 0.125 -0.023437 0.246093 -0.046874 0.367187 -0.066406 c 28.664063 -5.058594 49.5625 -29.984375 49.566406 -59.117187 c 0.464844 -12.988281 -2.828125 -20.898438 -8.125 -30.015625 z m 0 0" fill="#aa8003"/>
    <g mask="url(#b)">
        <g clip-path="url(#c)" transform="matrix(1 0 0 1 -8 -16)">
            <path d="m 71.957031 140.007812 c -33.207031 0 -59.941406 -26.761718 -59.941406 -60.007812 c 0 -0.5 -0.011719 -1 0 -1.5 c 0.792969 32.542969 27.238281 58.507812 59.941406 58.507812 c 32.707031 0 59.152344 -25.964843 59.945313 -58.507812 c 0.011718 0.5 0 1 0 1.5 c 0 33.246094 -26.734375 60.007812 -59.945313 60.007812 z m 0 0"/>
        </g>
    </g>
    <path d="m 14.078125 30.808594 c -1.03125 1.570312 -1.988281 3.253906 -2.953125 4.917968 c -4.664062 8.707032 -7.105469 18.429688 -7.113281 28.308594 c 0 33.15625 26.851562 60.035156 59.972656 60.035156 c 0.308594 -0.007812 0.613281 -0.019531 0.921875 -0.03125 l 28.394531 -47.273437 c -2.273437 3.710937 -11.75 8.460937 -15.796875 10.796875 c -12.941406 7.480469 -29.375 2.644531 -36.847656 -10.308594 z m 0 0" fill="#269846"/>
    <path d="m 64.050781 34.019531 c -0.066406 0 9.519531 4.277344 13.5625 6.617188 c 10.335938 5.972656 11.414063 27.304687 11.4375 35.9375 l 1.730469 1.003906 l -1.765625 3.058594 v 0.140625 l -0.667969 1.015625 l -24.359375 42.277343 c 0.15625 0.003907 0.3125 -0.015624 0.472657 -0.015624 c 0.828124 -0.011719 1.65625 -0.042969 2.484374 -0.09375 c 0.480469 -0.019532 0.960938 -0.023438 1.441407 -0.058594 c 1.886719 -0.136719 3.769531 -0.367188 5.636719 -0.683594 c 0.125 -0.023438 0.246093 -0.046875 0.367187 -0.070312 c 28.664063 -5.054688 49.5625 -29.980469 49.566406 -59.113282 c -0.027343 -10.546875 -2.828125 -20.898437 -8.125 -30.015625 z m 0 0" fill="#fbc116"/>
    <path d="m 63.960938 4 c -0.347657 0.007812 -0.695313 0.019531 -1.039063 0.035156 c -1.0625 0.007813 -2.121094 0.046875 -3.179687 0.117188 c -0.058594 0.007812 -0.117188 0.015625 -0.175782 0.023437 c -1.816406 0.136719 -3.625 0.355469 -5.421875 0.652344 c -0.183593 0.03125 -0.367187 0.054687 -0.550781 0.085937 c -0.011719 0 -0.023438 0.003907 -0.035156 0.007813 c -1.890625 0.332031 -3.761719 0.753906 -5.613282 1.265625 c -3.855468 1.070312 -7.59375 2.527344 -11.160156 4.34375 c -0.449218 0.25 -0.890625 0.503906 -1.332031 0.765625 c -9.742187 5.277344 -17.832031 13.160156 -23.375 22.761719 l 24.371094 42.265625 l 0.511719 1.019531 l 0.125 0.074219 l 1.144531 1.996093 l 10.519531 8.457032 l 2.917969 -1.246094 l 3.347656 2.109375 c -0.398437 -0.730469 -0.792969 -1.820313 -1.179687 -3.039063 l 19.667968 -8.417968 l -20.355468 -35.304688 c 1.863281 -4.296875 5.121093 -7.316406 10.835937 -7.953125 h 51.847656 c -1 -1.734375 -2.085937 -3.417969 -3.253906 -5.042969 c -1.144531 -1.589843 -2.371094 -3.121093 -3.664063 -4.589843 c -0.054687 -0.0625 -0.105468 -0.125 -0.160156 -0.183594 c -1.234375 -1.394531 -2.53125 -2.726563 -3.890625 -3.996094 c -0.136719 -0.125 -0.273437 -0.253906 -0.410156 -0.378906 c -1.316406 -1.207031 -2.6875 -2.355469 -4.105469 -3.441406 c -0.195312 -0.144531 -0.386718 -0.289063 -0.578125 -0.433594 c -1.375 -1.023437 -2.789062 -1.988281 -4.242187 -2.890625 c -0.273438 -0.167969 -0.546875 -0.335938 -0.820313 -0.503906 c -1.390625 -0.832032 -2.8125 -1.609375 -4.265625 -2.328125 c -0.402344 -0.195313 -0.808594 -0.390625 -1.214844 -0.578125 c -1.34375 -0.621094 -2.710937 -1.195313 -4.101562 -1.714844 c -0.523438 -0.203125 -1.050781 -0.398438 -1.578125 -0.585938 c -1.304687 -0.449218 -2.621094 -0.851562 -3.949219 -1.207031 c -0.660156 -0.183593 -1.320312 -0.351562 -1.984375 -0.511719 c -1.222656 -0.285156 -2.453125 -0.53125 -3.691406 -0.738281 c -0.78125 -0.132812 -1.5625 -0.25 -2.347656 -0.351562 c -1.121094 -0.140625 -2.242188 -0.253907 -3.363281 -0.332031 c -1.40625 -0.121094 -2.816407 -0.191407 -4.226563 -0.210938 c -0.007813 0 -0.015625 0 -0.027344 0 z m 0 0" fill="#e23a2d"/>
    <path d="m 93.96875 64.035156 c 0 -16.578125 -13.425781 -30.019531 -29.984375 -30.019531 c -16.5625 0 -29.988281 13.441406 -29.988281 30.019531 s 13.425781 30.019532 29.988281 30.019532 c 16.558594 0 29.984375 -13.441407 29.984375 -30.019532 z m 0 0" fill="#ffffff"/>
    <path d="m 87.542969 64.035156 c 0 -13.027344 -10.546875 -23.585937 -23.558594 -23.585937 s -23.5625 10.558593 -23.5625 23.585937 s 10.550781 23.585938 23.5625 23.585938 s 23.558594 -10.558594 23.558594 -23.585938 z m 0 0" fill="#1a73e8"/>
</svg>
