<?xml version="1.0" encoding="UTF-8"?>
<svg height="128px" viewBox="0 0 128 128" width="128px" xmlns="http://www.w3.org/2000/svg" xmlns:xlink="http://www.w3.org/1999/xlink">
    <filter id="a" height="100%" width="100%" x="0%" y="0%">
        <feColorMatrix color-interpolation-filters="sRGB" values="0 0 0 0 1 0 0 0 0 1 0 0 0 0 1 0 0 0 1 0"/>
    </filter>
    <linearGradient id="b" gradientTransform="matrix(0.241071 0 0 0.223684 -9.357933 216.522308)" gradientUnits="userSpaceOnUse" x1="88.595886" x2="536.595886" y1="-449.394012" y2="-449.394012">
        <stop offset="0" stop-color="#323294"/>
        <stop offset="0.0357143" stop-color="#4e4ee5"/>
        <stop offset="0.0713653" stop-color="#3939a8"/>
        <stop offset="0.928571" stop-color="#3939a8"/>
        <stop offset="0.964286" stop-color="#4e4ee5"/>
        <stop offset="1" stop-color="#323294"/>
    </linearGradient>
    <mask id="c">
        <g filter="url(#a)">
            <rect fill-opacity="0.1" height="153.6" width="153.6" x="-12.8" y="-12.8"/>
        </g>
    </mask>
    <clipPath id="d">
        <rect height="152" width="192"/>
    </clipPath>
    <mask id="e">
        <g filter="url(#a)">
            <rect fill-opacity="0.1" height="153.6" width="153.6" x="-12.8" y="-12.8"/>
        </g>
    </mask>
    <clipPath id="f">
        <rect height="152" width="192"/>
    </clipPath>
    <linearGradient id="g" gradientUnits="userSpaceOnUse">
        <stop offset="0" stop-color="#949390"/>
        <stop offset="1" stop-color="#424048"/>
    </linearGradient>
    <radialGradient id="h" cx="32.00005090404" cy="47.93941484209" r="2.751304" xlink:href="#g"/>
    <radialGradient id="i" cx="16.00005090404" cy="47.93941484209" r="2.751304" xlink:href="#g"/>
    <radialGradient id="j" cx="16.00004890404" cy="33.93941484209" r="2.751304" xlink:href="#g"/>
    <path d="m 20 48 h 92 c 4.417969 0 8 3.582031 8 8 v 52 c 0 4.417969 -3.582031 8 -8 8 h -92 c -4.417969 0 -8 -3.582031 -8 -8 v -52 c 0 -4.417969 3.582031 -8 8 -8 z m 0 0" fill="url(#b)"/>
    <path d="m 20 44 h 92 c 4.417969 0 8 3.582031 8 8 v 52 c 0 4.417969 -3.582031 8 -8 8 h -92 c -4.417969 0 -8 -3.582031 -8 -8 v -52 c 0 -4.417969 3.582031 -8 8 -8 z m 0 0" fill="#4747d1"/>
    <path d="m 52.5 71 v 30 h 3.011719 c 0.527343 0 1.046875 -0.117188 1.503906 -0.375 l 21.074219 -12 c 0.941406 -0.515625 1.410156 -1.570312 1.410156 -2.625 s -0.46875 -2.109375 -1.410156 -2.625 l -21.074219 -12 c -0.457031 -0.257812 -0.976563 -0.375 -1.503906 -0.375 z m 0 0" fill="#f6f5f4"/>
    <g mask="url(#c)">
        <g clip-path="url(#d)" transform="matrix(1 0 0 1 -8 -16)">
            <path d="m 20 70 h 108 v 4 h -108 z m 0 0"/>
        </g>
    </g>
    <path d="m 13.390625 42 h 105.21875 c 1.320313 0 2.390625 0.894531 2.390625 2 v 8 c 0 1.105469 -1.070312 2 -2.390625 2 h -105.21875 c -1.320313 0 -2.390625 -0.894531 -2.390625 -2 v -8 c 0 -1.105469 1.070312 -2 2.390625 -2 z m 0 0" fill="#2b2b80"/>
    <path d="m 67 42 h 10 l -10 12 h -10 z m 0 0" fill="#f6d32d"/>
    <path d="m 57 42 h 10 l -10 12 h -10 z m 0 0" fill="#3584e4"/>
    <path d="m 47 42 h 10 l -10 12 h -10 z m 0 0" fill="#33d17a"/>
    <path d="m 77 42 h 10 l -10 12 h -10 z m 0 0" fill="#e01b24"/>
    <path d="m 87 42 h 10 l -10 12 h -10 z m 0 0" fill="#ffffff"/>
    <path d="m 97 42 h 10 l -10 12 h -10 z m 0 0" fill="#3d3846"/>
    <path d="m 13.632812 31.332031 l 101.628907 -27.234375 c 1.277343 -0.339844 2.542969 0.246094 2.828125 1.3125 l 2.070312 7.726563 c 0.285156 1.070312 -0.515625 2.210937 -1.792968 2.550781 l -101.628907 27.234375 c -1.277343 0.339844 -2.542969 -0.246094 -2.828125 -1.3125 l -2.070312 -7.726563 c -0.285156 -1.070312 0.515625 -2.210937 1.792968 -2.550781 z m 0 0" fill="#2b2b80"/>
    <path d="m 68.519531 29.046875 l 9.660157 -2.589844 l -12.765626 -9 l -9.660156 2.585938 z m 0 0" fill="#f6d32d"/>
    <path d="m 58.859375 31.632812 l 9.660156 -2.585937 l -12.765625 -9.003906 l -9.660156 2.589843 z m 0 0" fill="#3584e4"/>
    <path d="m 49.199219 34.222656 l 9.660156 -2.589844 l -12.765625 -9 l -9.660156 2.585938 z m 0 0" fill="#33d17a"/>
    <path d="m 78.179688 26.457031 l 9.65625 -2.585937 l -12.765626 -9.003906 l -9.65625 2.589843 z m 0 0" fill="#e01b24"/>
    <path d="m 87.835938 23.871094 l 9.660156 -2.589844 l -12.765625 -9.003906 l -9.660157 2.589844 z m 0 0" fill="#ffffff"/>
    <path d="m 97.496094 21.28125 l 9.660156 -2.585938 l -12.765625 -9.003906 l -9.660156 2.585938 z m 0 0" fill="#3d3846"/>
    <path d="m 12 33 v 18 c 0 0.992188 0.832031 2 2 2 h 21.796875 c 1.574219 0 2.625 -1.277344 2.039063 -2.414062 c -0.992188 -1.84375 -8.804688 -16.699219 -9.796876 -18.546876 c -0.347656 -0.660156 -1.105468 -1.039062 -1.980468 -1.039062 h -12.058594 c -1.167969 0 -2 1.007812 -2 2 z m 0 0" fill="#241f31"/>
    <g mask="url(#e)">
        <g clip-path="url(#f)" transform="matrix(1 0 0 1 -8 -16)">
            <path d="m 22 47 c -1.167969 0 -2 1.007812 -2 2 v 18 c 0 0.992188 0.832031 2 2 2 h 4 c -1.167969 0 -2 -1.007812 -2 -2 v -18 c 0 -0.992188 0.832031 -2 2 -2 z m 0 0" fill="#ffffff"/>
        </g>
    </g>
    <path d="m 34 49 c 0 1.105469 -0.894531 2 -2 2 s -2 -0.894531 -2 -2 s 0.894531 -2 2 -2 s 2 0.894531 2 2 z m 0 0" fill="url(#h)"/>
    <path d="m 18 49 c 0 1.105469 -0.894531 2 -2 2 s -2 -0.894531 -2 -2 s 0.894531 -2 2 -2 s 2 0.894531 2 2 z m 0 0" fill="url(#i)"/>
    <path d="m 18 35 c 0 1.105469 -0.894531 2 -2 2 s -2 -0.894531 -2 -2 s 0.894531 -2 2 -2 s 2 0.894531 2 2 z m 0 0" fill="url(#j)"/>
</svg>
