<?xml version="1.0" encoding="UTF-8"?>
<svg height="128px" viewBox="0 0 128 128" width="128px" xmlns="http://www.w3.org/2000/svg" xmlns:xlink="http://www.w3.org/1999/xlink">
    <radialGradient id="a" cx="111.990219" cy="193.720673" gradientTransform="matrix(1 0 0 0.851348 -71.706726 -96.437569)" gradientUnits="userSpaceOnUse" r="44.163139">
        <stop offset="0" stop-color="#ffffff" stop-opacity="0.698039"/>
        <stop offset="1" stop-color="#ffffff" stop-opacity="0"/>
    </radialGradient>
    <radialGradient id="b" cx="33.446266" cy="207.893509" gradientTransform="matrix(1 0 0 0.991958 0 -170.328226)" gradientUnits="userSpaceOnUse" r="5.830743">
        <stop offset="0" stop-color="#f2788c"/>
        <stop offset="1" stop-color="#da1636"/>
    </radialGradient>
    <linearGradient id="c" gradientTransform="matrix(0.811176 -0.584802 0.583805 0.811894 0 -172)" gradientUnits="userSpaceOnUse" x1="-100.888878" x2="-87.212257" y1="201.108475" y2="201.108475">
        <stop offset="0" stop-color="#fdc92b"/>
        <stop offset="0.5" stop-color="#fee8a4"/>
        <stop offset="1" stop-color="#fdc92b"/>
    </linearGradient>
    <path d="m 124 66 c 0 33.136719 -26.863281 60 -60 60 s -60 -26.863281 -60 -60 s 26.863281 -60 60 -60 s 60 26.863281 60 60 z m 0 0" fill="#bb8820"/>
    <path d="m 124 64 c 0 33.136719 -26.863281 60 -60 60 s -60 -26.863281 -60 -60 s 26.863281 -60 60 -60 s 60 26.863281 60 60 z m 0 0" fill="#e0af4c"/>
    <path d="m 36.34375 53.175781 c -4.785156 5.257813 -8.429688 11.570313 -8.429688 18.765625 c 0 17.605469 16.15625 31.875 36.085938 31.875 s 36.085938 -14.269531 36.085938 -31.875 c 0 -7.015625 -3.40625 -13.5 -8.046876 -18.765625 z m 0 0" fill="#a86d54"/>
    <path d="m 36.34375 53.175781 h 55.695312 c 4.640626 5.265625 8.046876 11.75 8.046876 18.765625 c 0 17.605469 -16.15625 31.875 -36.085938 31.875 s -36.085938 -14.269531 -36.085938 -31.875 c 0 -7.195312 3.644532 -13.507812 8.429688 -18.765625 z m 32.855469 70.597657 s -0.101563 -4.109376 0.285156 -6.113282 c 0.566406 -2.941406 1.054687 -5.242187 2.953125 -8.488281 c 20.355469 -3.429687 35.726562 -19.019531 35.726562 -37.738281 c 0 -8.460938 -4.171874 -16.28125 -9.851562 -22.628906 h -68.15625 c -5.855469 6.335937 -10.320312 13.953124 -10.320312 22.628906 c 0 18.628906 15.226562 34.164062 35.4375 37.6875 c 0.769531 2.46875 1.707031 5.640625 2.15625 8.539062 c 0.308593 1.988282 0.371093 6.019532 0.371093 6.019532 s 2.894531 0.292968 5.699219 0.316406 c 2.804688 0.023437 5.699219 -0.222656 5.699219 -0.222656 z m 0 0" fill="#f1f0e9"/>
    <path d="m 80.890625 64.558594 c -1.25 0.039062 -2.671875 0.597656 -5.105469 1.484375 c -3.542968 1.292969 -9.132812 3.082031 -13.621094 4.996093 c -4.488281 1.914063 -4.292968 1.1875 -5.890624 1.308594 c -1.597657 0.121094 -2.644532 -0.054687 -3.570313 -0.238281 c -0.921875 -0.179687 -1.21875 -0.421875 -1.960937 -0.652344 c -0.742188 -0.230469 -1.453126 -0.558593 -2.5 -0.714843 c -1.042969 -0.152344 -1.554688 -0.25 -3.746094 -0.058594 s -6.34375 1.21875 -9.277344 1.785156 c -2.183594 0.417969 -5.515625 1.101562 -7.234375 1.421875 c 1.144531 16.695313 16.828125 29.925781 36.015625 29.925781 c 19.929688 0 36.085938 -14.269531 36.085938 -31.875 c 0 -0.445312 -0.011719 -0.890625 -0.039063 -1.332031 c -0.882813 0.324219 -2.019531 0.699219 -2.671875 0.726563 c -1.140625 0.050781 -1.621094 -0.226563 -2.734375 -0.59375 c -1.113281 -0.363282 -2.472656 -1.015626 -3.867187 -1.722657 c -1.394532 -0.710937 -2.671876 -1.398437 -4.042969 -2.082031 c -1.375 -0.6875 -2.324219 -1.382812 -4.167969 -2.082031 c -0.574219 -0.21875 -1.105469 -0.3125 -1.671875 -0.296875 z m 0 0" fill="#fda463"/>
    <path d="m 72.988281 84.125 c -3.386719 -0.035156 -5.929687 0.566406 -11.183593 1.3125 c -5.25 0.742188 -17.71875 2.867188 -20.28125 3.386719 c -4.292969 0.875 -6.984376 0.621093 -7.75 0.519531 c 6.441406 8.710938 17.566406 14.472656 30.226562 14.472656 c 11.941406 0 22.527344 -5.125 29.09375 -13.019531 c -0.964844 -0.679687 -4.273438 -2.96875 -5.949219 -3.753906 c -1.957031 -0.921875 -2.816406 -1.128907 -5.175781 -1.667969 c -2.355469 -0.539062 -5.59375 -1.210938 -8.980469 -1.25 z m 0 0" fill="#ffda64"/>
    <path d="m 69.199219 123.773438 s -0.101563 -4.109376 0.285156 -6.113282 c 0.566406 -2.941406 1.054687 -5.242187 2.953125 -8.488281 c 20.355469 -3.429687 35.726562 -19.019531 35.726562 -37.738281 c 0 -8.460938 -4.171874 -16.28125 -9.851562 -22.628906 h -68.15625 c -5.855469 6.335937 -10.320312 13.953124 -10.320312 22.628906 c 0 18.628906 15.226562 34.164062 35.4375 37.6875 c 0.769531 2.46875 1.707031 5.640625 2.15625 8.539062 c 0.308593 1.988282 0.371093 6.019532 0.371093 6.019532 s 2.894531 0.292968 5.699219 0.316406 c 2.804688 0.023437 5.699219 -0.222656 5.699219 -0.222656 z m 0 0" fill="url(#a)"/>
    <path d="m 36.972656 37.449219 l -3.195312 1.804687 l 10.136718 13.921875 h 4.363282 z m 0 0" fill="#234db8"/>
    <path d="m 39.277344 35.894531 c 0 3.191407 -2.609375 5.78125 -5.832032 5.78125 c -3.21875 0 -5.828124 -2.589843 -5.828124 -5.78125 c 0 -3.195312 2.609374 -5.785156 5.828124 -5.785156 c 3.222657 0 5.832032 2.589844 5.832032 5.785156 z m 0 0" fill="url(#b)"/>
    <path d="m 35.675781 44.605469 l 5.582031 -4.023438 c 1.519532 -1.097656 3.644532 -0.75 4.738282 0.773438 l 1.332031 1.851562 c 1.097656 1.523438 0.75 3.648438 -0.769531 4.746094 l -5.582032 4.023437 c -1.523437 1.097657 -3.644531 0.753907 -4.742187 -0.773437 l -1.332031 -1.851563 c -1.09375 -1.523437 -0.75 -3.648437 0.773437 -4.746093 z m 0 0" fill="url(#c)"/>
    <path d="m 86.449219 38.5625 l 0.089843 0.683594 l -3.839843 13.929687 h 3.65625 l 3.722656 -13.660156 z m 0 0" fill="#f34f17"/>
    <path d="m 92.136719 24.457031 l -28.710938 9.046875 l 49.082031 13.171875 z m 0 0" fill="#28851e"/>
    <path d="m 92.136719 24.457031 l -28.710938 9.046875 l 9.328125 2.503906 z m 0 0" fill="#46a926"/>
    <path d="m 92.136719 24.457031 l -19.382813 11.550781 l 8.207032 2.203126 z m 0 0" fill="#28851e"/>
    <path d="m 92.136719 24.457031 l -11.175781 13.753907 l 6.847656 1.835937 z m 0 0" fill="#46a926"/>
    <path d="m 92.136719 24.457031 l -4.328125 15.589844 l 6.917968 1.855469 z m 0 0" fill="#28851e"/>
    <path d="m 92.136719 24.457031 l 2.539062 17.433594 l 7.925781 2.125 z m 0 0" fill="#46a926"/>
</svg>
