<?xml version="1.0" encoding="UTF-8"?>
<svg height="128px" viewBox="0 0 128 128" width="128px" xmlns="http://www.w3.org/2000/svg" xmlns:xlink="http://www.w3.org/1999/xlink">
    <filter id="a" height="100%" width="100%" x="0%" y="0%">
        <feColorMatrix color-interpolation-filters="sRGB" values="0 0 0 0 1 0 0 0 0 1 0 0 0 0 1 0 0 0 1 0"/>
    </filter>
    <linearGradient id="b" gradientUnits="userSpaceOnUse" x1="8.000002" x2="120" y1="66.874496" y2="66.874496">
        <stop offset="0" stop-color="#2c2454"/>
        <stop offset="0.0980143" stop-color="#5747a6"/>
        <stop offset="0.199219" stop-color="#372d69"/>
        <stop offset="0.802459" stop-color="#372d69"/>
        <stop offset="0.900858" stop-color="#5747a6"/>
        <stop offset="1" stop-color="#2c2454"/>
    </linearGradient>
    <mask id="c">
        <g filter="url(#a)">
            <rect fill-opacity="0.2" height="153.6" width="153.6" x="-12.8" y="-12.8"/>
        </g>
    </mask>
    <clipPath id="d">
        <rect height="152" width="192"/>
    </clipPath>
    <mask id="e">
        <g filter="url(#a)">
            <rect fill-opacity="0.2" height="153.6" width="153.6" x="-12.8" y="-12.8"/>
        </g>
    </mask>
    <clipPath id="f">
        <rect height="152" width="192"/>
    </clipPath>
    <mask id="g">
        <g filter="url(#a)">
            <rect fill-opacity="0.2" height="153.6" width="153.6" x="-12.8" y="-12.8"/>
        </g>
    </mask>
    <clipPath id="h">
        <rect height="152" width="192"/>
    </clipPath>
    <mask id="i">
        <g filter="url(#a)">
            <rect fill-opacity="0.2" height="153.6" width="153.6" x="-12.8" y="-12.8"/>
        </g>
    </mask>
    <clipPath id="j">
        <rect height="152" width="192"/>
    </clipPath>
    <mask id="k">
        <g filter="url(#a)">
            <rect fill-opacity="0.2" height="153.6" width="153.6" x="-12.8" y="-12.8"/>
        </g>
    </mask>
    <clipPath id="l">
        <rect height="152" width="192"/>
    </clipPath>
    <path d="m 113.074219 70.121094 c 1.214843 -0.242188 2.265625 -0.8125 3.078125 -1.621094 c 1.027344 -1.363281 1.46875 -2.828125 1.453125 -4.207031 l -0.03125 -4.539063 s -6.28125 -2.101562 -6.28125 -2.667968 v -0.40625 c 0.648437 -0.648438 1.214843 -1.457032 2.023437 -2.671876 c 6.558594 -8.742187 9.554688 -40.964843 3.078125 -43.472656 c -7.933593 -2.671875 -24.046875 5.097656 -31.007812 14.085938 c -0.40625 -0.242188 -0.808594 -0.808594 -0.808594 -1.457032 c 0.242187 -2.429687 -1.054687 -4.453124 -2.835937 -5.507812 c -3.640626 -1.859375 -7.125 0 -8.582032 2.671875 c -0.402344 0.648437 -1.050781 1.054687 -1.617187 0.8125 c -0.648438 0 -1.214844 -0.648437 -1.214844 -1.214844 c -0.40625 -2.023437 -1.621094 -3.644531 -3.480469 -4.453125 c -3.886718 -1.621094 -7.933594 0.648438 -8.582031 4.289063 c -0.242187 0.648437 -0.648437 1.214843 -1.214844 1.214843 c -0.648437 0.242188 -1.214843 -0.242187 -1.621093 -0.808593 c -1.214844 -1.863281 -3.238282 -3.078125 -5.261719 -3.078125 c -3.238281 0 -6.152344 2.671875 -6.3125 5.910156 v 0.488281 c 0 0.648438 -0.40625 1.214844 -0.8125 1.457031 h -0.242188 c -6.71875 -8.746093 -23.074219 -16.757812 -31.167969 -14.085937 c -6.558593 2.265625 -3.480468 34.488281 3.238282 43.230469 c 1.214844 1.621094 2.265625 2.832031 3.074218 3.644531 c -0.242187 0.648437 -0.808593 1.214844 -1.457031 1.214844 c -1.050781 0 -5.0625 1.40625 -5.0625 1.40625 s -0.101562 3.085937 -0.011719 4.8125 c 0.144532 2.671875 2.066407 5.042969 4.671876 5.679687 c 0.648437 0.242188 1.214843 0.8125 1.214843 1.457032 c 0 0.648437 -0.40625 1.457031 -1.054687 1.621093 c -0.808594 0.402344 -3.5625 1.175781 -3.5625 1.175781 s -0.117188 3.519532 0.007812 4.949219 c 0.257813 3.027344 2.71875 5.453125 5.742188 5.453125 c 0.648437 0 -0.601563 2.046875 -0.601563 2.046875 l -0.015625 4.25 s 0.007813 0.550781 0.050782 0.824219 c 0.242187 2.269531 1.617187 4.292969 3.882812 5.265625 c 1.214844 0.644531 2.429688 0.644531 3.644531 0.402344 c 0.648438 -0.242188 1.214844 0 1.621094 0.648437 c 0.402344 0.40625 0.402344 1.214844 0.242187 1.621094 c -0.253906 0.472656 -0.523437 -1.898438 -0.625 -1.371094 c -0.054687 0.300782 0.003907 3.496094 0 3.804688 c -0.007812 0.535156 0.0625 1.082031 0.21875 1.613281 c 0.648438 2.265625 2.269532 3.886719 4.453126 4.453125 c 2.023437 0.402344 3.480468 -0.242188 4.453124 -0.648438 c 0.40625 -0.242187 -2.808593 3.992188 -4.996093 9.09375 l 0.003906 4.238282 c 0.089844 1.328125 1.5 2.472656 2.96875 1.808594 c 6.71875 -3.078126 17.972656 -8.339844 17.972656 -7.933594 c 0.40625 4.289062 5.261719 7.367187 9.957031 4.289062 c 1.054688 -0.648437 1.621094 -1.863281 1.863282 -2.832031 c 0.242187 -0.648437 0.808594 -1.214844 1.617187 -1.214844 c 0.8125 0 1.460938 0.402344 1.621094 1.214844 c 0.242187 1.050781 0.648437 1.859375 1.457031 2.425781 c 4.695313 3.644532 9.957032 0.648438 10.363282 -3.882812 c 0 -0.648438 0.40625 -1.214844 1.050781 -1.460938 c 0.648437 -0.242187 1.214843 0 1.621093 0.40625 c 1.214844 1.214844 2.671876 2.023438 4.289063 2.023438 c 2.023437 0 4.050781 -1.050782 5.261719 -3.074219 c 0.8125 -1.214844 1.054687 -2.429687 0.8125 -4.050781 c 0 -0.644532 0.242187 -1.210938 0.648437 -1.617188 c 0.402344 -0.40625 1.210938 -0.40625 1.617188 0 c 1.214843 0.648438 2.671875 1.050782 4.046875 0.648438 c 2.269531 -0.40625 4.050781 -2.269532 4.695312 -4.292969 c 0.148438 -0.523437 0.222656 -1.546875 0.222656 -1.546875 v -3.910156 s -0.867187 -0.046875 -0.382812 -0.453125 c 0.484375 -0.402344 1.050781 -0.648438 1.621094 -0.648438 c 1.457031 0.246094 2.671875 0.246094 3.882812 -0.402343 c 1.863282 -0.808594 3.078125 -2.429688 3.484375 -4.453126 c 0.089844 -0.464843 0.113281 -1.367187 0.113281 -1.367187 l -0.007812 -4.183594 s -2.375 -0.765625 -2.132812 -1.332031 c 0.246093 -0.566406 0.8125 -1.050781 1.457031 -1.050781 c 1.460937 0 3.078125 -0.40625 4.050781 -1.621094 c 1.40625 -1.472656 1.980469 -3.15625 1.90625 -4.746094 l -0.011719 -4.214843 s -4.972656 -2.046876 -4.972656 -2.859376 c 0 -0.726562 0.566406 -1.292968 1.214844 -1.292968 z m 0 0" fill="url(#b)"/>
    <path d="m 113.074219 66.121094 c 1.214843 -0.242188 2.265625 -0.8125 3.078125 -1.621094 c 3.238281 -4.289062 0.644531 -9.550781 -3.644532 -10.199219 c -0.648437 0 -1.214843 -0.648437 -1.214843 -1.214843 v -0.40625 c 0.648437 -0.648438 1.214843 -1.457032 2.023437 -2.671876 c 6.558594 -8.742187 9.554688 -40.964843 3.078125 -43.472656 c -7.933593 -2.671875 -24.046875 5.097656 -31.007812 14.085938 c -0.40625 -0.242188 -0.808594 -0.808594 -0.808594 -1.457032 c 0.242187 -2.429687 -1.054687 -4.453124 -2.835937 -5.507812 c -3.640626 -1.859375 -7.125 0 -8.582032 2.671875 c -0.402344 0.648437 -1.050781 1.054687 -1.617187 0.8125 c -0.648438 0 -1.214844 -0.648437 -1.214844 -1.214844 c -0.40625 -2.023437 -1.621094 -3.644531 -3.480469 -4.453125 c -3.886718 -1.621094 -7.933594 0.648438 -8.582031 4.289063 c -0.242187 0.648437 -0.648437 1.214843 -1.214844 1.214843 c -0.648437 0.242188 -1.214843 -0.242187 -1.621093 -0.808593 c -1.210938 -1.863281 -3.238282 -3.078125 -5.261719 -3.078125 c -3.238281 0 -6.152344 2.671875 -6.3125 5.910156 v 0.488281 c 0 0.648438 -0.40625 1.214844 -0.8125 1.457031 h -0.242188 c -6.71875 -8.746093 -23.074219 -16.757812 -31.167969 -14.085937 c -6.558593 2.265625 -3.480468 34.488281 3.238282 43.230469 c 1.214844 1.621094 2.265625 2.832031 3.074218 3.644531 c -0.242187 0.648437 -0.808593 1.214844 -1.457031 1.214844 c -1.050781 0 -2.023437 0.402343 -2.832031 1.050781 c -4.292969 4.046875 -1.863281 9.796875 2.429688 10.847656 c 0.648437 0.242188 1.214843 0.8125 1.214843 1.457032 c 0 0.648437 -0.40625 1.457031 -1.054687 1.621093 c -0.808594 0.402344 -1.617188 0.808594 -2.265625 1.617188 c -3.238281 4.695312 0 9.960937 4.453125 9.960937 c 0.648437 0 1.214844 0.402344 1.457031 1.050782 c 0.242187 0.648437 0.242187 1.214843 -0.40625 1.621093 c -1.214844 1.210938 -1.859375 2.832031 -1.617187 4.449219 c 0.242187 2.269531 1.617187 4.292969 3.886718 5.265625 c 1.210938 0.644531 2.425782 0.644531 3.640625 0.402344 c 0.648438 -0.242188 1.214844 0 1.621094 0.648437 c 0.402344 0.40625 0.402344 1.214844 0.242187 1.621094 c -0.648437 1.210938 -0.808593 2.671875 -0.40625 4.046875 c 0.648438 2.265625 2.269532 3.886719 4.453126 4.453125 c 2.023437 0.402344 3.480468 -0.242188 4.453124 -0.648438 c 0.40625 -0.242187 -2.671874 7.367188 -4.855468 12.46875 c -0.648438 1.617188 1.050781 3.480469 2.832031 2.671876 c 6.71875 -3.078126 17.972656 -8.339844 17.972656 -7.933594 c 0.40625 4.289062 5.261719 7.367187 9.957031 4.289062 c 1.054688 -0.648437 1.621094 -1.863281 1.863282 -2.832031 c 0.242187 -0.648437 0.808594 -1.214844 1.617187 -1.214844 c 0.8125 0 1.460938 0.402344 1.621094 1.214844 c 0.242187 1.050781 0.648437 1.859375 1.457031 2.425781 c 4.695313 3.644532 9.957032 0.648438 10.363282 -3.882812 c 0 -0.648438 0.40625 -1.214844 1.050781 -1.460938 c 0.648437 -0.242187 1.214843 0 1.621093 0.40625 c 1.214844 1.214844 2.671876 2.023438 4.289063 2.023438 c 2.023437 0 4.050781 -1.050782 5.261719 -3.074219 c 0.8125 -1.214844 1.054687 -2.429687 0.8125 -4.050781 c 0 -0.644532 0.242187 -1.210938 0.648437 -1.617188 c 0.402344 -0.40625 1.210938 -0.40625 1.617188 0 c 1.214843 0.648438 2.671875 1.050782 4.046875 0.648438 c 2.269531 -0.40625 4.050781 -2.269532 4.695312 -4.292969 c 0.40625 -1.457031 0.246094 -2.832031 -0.402344 -4.289063 c -0.242187 -0.648437 -0.242187 -1.214843 0.242188 -1.621093 c 0.484375 -0.402344 1.050781 -0.648438 1.621094 -0.648438 c 1.457031 0.246094 2.667968 0.246094 3.882812 -0.402343 c 1.863282 -0.808594 3.078125 -2.429688 3.484375 -4.453126 c 0.402344 -2.023437 -0.246093 -3.886718 -1.621093 -5.261718 c -0.40625 -0.40625 -0.648438 -1.054688 -0.40625 -1.621094 c 0.246093 -0.566406 0.8125 -1.050781 1.457031 -1.050781 c 1.460937 0 3.078125 -0.40625 4.050781 -1.621094 c 3.480469 -3.640625 1.859375 -8.582031 -2.023438 -10.199219 c -0.648437 -0.242187 -1.054687 -0.808594 -1.054687 -1.621094 c 0 -0.726562 0.566406 -1.292968 1.214844 -1.292968 z m 0 0" fill="#4d3f92"/>
    <path d="m 96.71875 23.292969 c 0.40625 1.214843 0.40625 2.429687 0 3.644531 c -0.242188 0.644531 0 1.210938 0.40625 1.617188 s 1.054688 0.648437 1.621094 0.40625 c 0.808594 -0.40625 1.617187 -0.40625 2.425781 -0.40625 c 1.863281 0 3.484375 0.808593 4.695313 2.429687 c 0.8125 1.050781 1.460937 2.429687 1.214843 3.886719 c 0 1.214844 -0.402343 2.265625 -1.050781 3.238281 c -0.40625 0.402344 -0.40625 1.214844 0 1.617187 c 0.242188 0.242188 0.40625 0.648438 0.808594 0.648438 c 0.808594 -0.242188 1.621094 -0.808594 2.265625 -1.621094 c 3.644531 -5.097656 4.292969 -21.210937 0.648437 -22.425781 c -3.640625 -1.210937 -9.957031 1.214844 -14.492187 4.859375 c 0.890625 0.40625 1.296875 1.050781 1.457031 2.105469 z m 0 0" fill="#ffffff"/>
    <path d="m 21.914062 40.617188 c 0.242188 -0.242188 0.40625 -0.402344 0.648438 -0.648438 c 0.402344 -0.644531 0.242188 -1.214844 0 -1.617188 c -1.054688 -1.457031 -1.296875 -3.078124 -1.054688 -4.695312 c 0.40625 -2.269531 2.269532 -4.050781 4.453126 -4.695312 c 1.214843 -0.40625 2.429687 -0.246094 3.644531 0.242187 c 0.648437 0.242187 1.214843 0 1.617187 -0.40625 c 0.40625 -0.402344 0.648438 -1.050781 0.40625 -1.617187 c -0.40625 -1.214844 -0.40625 -2.429688 0 -3.644532 c 0.242188 -0.808594 0.648438 -1.617187 1.214844 -2.265625 c -4.453125 -3.644531 -11.253906 -6.316406 -14.898438 -5.101562 c -3.640624 1.214843 -2.992187 17.324219 0.730469 22.425781 c 0.808594 1.214844 1.78125 1.78125 3.238281 2.023438 z m 0 0" fill="#ffffff"/>
    <g mask="url(#c)">
        <g clip-path="url(#d)" transform="matrix(1 0 0 1 -8 -16)">
            <path d="m 115.453125 32.015625 c -3.648437 0.054687 -8.507813 2.210937 -12.191406 5.171875 c 0.570312 0.257812 0.941406 0.617188 1.175781 1.117188 c 4.398438 -3.136719 9.980469 -5.089844 13.316406 -3.976563 c 1.535156 0.511719 2.304688 3.664063 2.414063 7.523437 c 0.132812 -4.722656 -0.621094 -8.925781 -2.414063 -9.523437 c -0.679687 -0.226563 -1.460937 -0.324219 -2.300781 -0.3125 z m -1.285156 23.875 c 0.566406 -0.910156 0.914062 -1.894531 0.914062 -3.019531 c 0.082031 -0.492188 0.0625 -0.976563 -0.03125 -1.441406 c -0.105469 0.980468 -0.472656 1.859374 -1.019531 2.679687 c -0.40625 0.402344 -0.40625 1.214844 0 1.617187 c 0.046875 0.050782 0.09375 0.105469 0.136719 0.164063 z m 0 0" fill="#4d3f92"/>
        </g>
    </g>
    <g mask="url(#e)">
        <g clip-path="url(#f)" transform="matrix(1 0 0 1 -8 -16)">
            <path d="m 27.863281 31.871094 c -0.699219 0.011718 -1.347656 0.105468 -1.917969 0.296875 c -1.78125 0.59375 -2.535156 4.761719 -2.40625 9.453125 c 0.113282 -3.824219 0.882813 -6.945313 2.40625 -7.453125 c 3.417969 -1.140625 9.609376 1.140625 14.039063 4.433593 c 0.226563 -0.480468 0.511719 -0.9375 0.859375 -1.332031 c -3.757812 -3.074219 -9.1875 -5.457031 -12.980469 -5.398437 z m 1.636719 19.867187 c -0.210938 1.507813 0.003906 3.011719 0.90625 4.386719 l 0.15625 -0.15625 c 0.40625 -0.644531 0.242188 -1.210938 0 -1.617188 c -0.597656 -0.828124 -0.929688 -1.710937 -1.0625 -2.613281 z m 0 0" fill="#4d3f92"/>
        </g>
    </g>
    <g fill="#ffffff">
        <path d="m 47.171875 65.714844 c 0 4.160156 -3.371094 7.53125 -7.527344 7.53125 c -4.160156 0 -7.53125 -3.371094 -7.53125 -7.53125 c 0 -4.15625 3.371094 -7.527344 7.53125 -7.527344 c 4.15625 0 7.527344 3.371094 7.527344 7.527344 z m 0 0"/>
        <path d="m 71.867188 65.714844 c 0 4.292968 -3.484376 7.53125 -7.53125 7.53125 c -4.289063 0 -7.527344 -3.484375 -7.527344 -7.53125 s 15.058594 -4.289063 15.058594 0 z m 0 0"/>
        <path d="m 96.316406 65.714844 c 0 4.160156 -3.371094 7.53125 -7.53125 7.53125 c -4.15625 0 -7.527344 -3.371094 -7.527344 -7.53125 c 0 -4.15625 3.371094 -7.527344 7.527344 -7.527344 c 4.160156 0 7.53125 3.371094 7.53125 7.527344 z m 0 0"/>
    </g>
    <g mask="url(#g)">
        <g clip-path="url(#h)" transform="matrix(1 0 0 1 -8 -16)">
            <path d="m 47.644531 74.1875 c -4.160156 0 -7.53125 3.371094 -7.53125 7.527344 c 0.003907 0.335937 0.027344 0.667968 0.070313 1 c 0.503906 -3.738282 3.691406 -6.527344 7.460937 -6.527344 c 3.765625 0 6.953125 2.785156 7.457031 6.519531 c 0.046876 -0.328125 0.070313 -0.660156 0.070313 -0.992187 c 0 -4.15625 -3.371094 -7.527344 -7.527344 -7.527344 z m 0 0" fill="#4d3f92"/>
        </g>
    </g>
    <g mask="url(#i)">
        <g clip-path="url(#j)" transform="matrix(1 0 0 1 -8 -16)">
            <path d="m 72.335938 78.589844 c -3.761719 0.027344 -7.527344 1.101562 -7.527344 3.125 c 0 0.46875 0.042968 0.929687 0.128906 1.378906 c 1.371094 -3.25 13.46875 -3.425781 14.804688 -0.015625 c 0.082031 -0.441406 0.125 -0.894531 0.125 -1.363281 c 0 -2.144532 -3.765626 -3.15625 -7.53125 -3.125 z m 0 0" fill="#4d3f92"/>
        </g>
    </g>
    <g mask="url(#k)">
        <g clip-path="url(#l)" transform="matrix(1 0 0 1 -8 -16)">
            <path d="m 96.785156 74.1875 c -4.15625 0 -7.527344 3.371094 -7.527344 7.527344 c 0 0.335937 0.023438 0.667968 0.070313 1 c 0.5 -3.738282 3.6875 -6.527344 7.457031 -6.527344 c 3.769532 0 6.957032 2.785156 7.460938 6.519531 c 0.042968 -0.328125 0.066406 -0.660156 0.070312 -0.992187 c 0 -4.15625 -3.371094 -7.527344 -7.53125 -7.527344 z m 0 0" fill="#4d3f92"/>
        </g>
    </g>
</svg>
