<?xml version="1.0" encoding="UTF-8"?>
<svg height="128px" viewBox="0 0 128 128" width="128px" xmlns="http://www.w3.org/2000/svg" xmlns:xlink="http://www.w3.org/1999/xlink">
    <filter id="a" height="100%" width="100%" x="0%" y="0%">
        <feColorMatrix color-interpolation-filters="sRGB" values="0 0 0 0 1 0 0 0 0 1 0 0 0 0 1 0 0 0 1 0"/>
    </filter>
    <linearGradient id="b" gradientTransform="matrix(1.037037 0 0 1.023256 -2.370371 11.627899)" gradientUnits="userSpaceOnUse" x1="10" x2="118" y1="59" y2="59">
        <stop offset="0" stop-color="#060508"/>
        <stop offset="0.05" stop-color="#423959"/>
        <stop offset="0.1" stop-color="#110f17"/>
        <stop offset="0.9" stop-color="#110f17"/>
        <stop offset="0.95" stop-color="#423959"/>
        <stop offset="1" stop-color="#060508"/>
    </linearGradient>
    <mask id="c">
        <g filter="url(#a)">
            <rect fill-opacity="0.1" height="153.6" width="153.6" x="-12.8" y="-12.8"/>
        </g>
    </mask>
    <clipPath id="d">
        <rect height="152" width="192"/>
    </clipPath>
    <mask id="e">
        <g filter="url(#a)">
            <rect fill-opacity="0.1" height="153.6" width="153.6" x="-12.8" y="-12.8"/>
        </g>
    </mask>
    <clipPath id="f">
        <rect height="152" width="192"/>
    </clipPath>
    <path d="m 16 28 h 96 c 4.417969 0 8 3.582031 8 8 v 72 c 0 4.417969 -3.582031 8 -8 8 h -96 c -4.417969 0 -8 -3.582031 -8 -8 v -72 c 0 -4.417969 3.582031 -8 8 -8 z m 0 0" fill="url(#b)"/>
    <path d="m 16 24 h 96 c 4.417969 0 8 3.582031 8 8 v 72 c 0 4.417969 -3.582031 8 -8 8 h -96 c -4.417969 0 -8 -3.582031 -8 -8 v -72 c 0 -4.417969 3.582031 -8 8 -8 z m 0 0" fill="#332c45"/>
    <g mask="url(#c)">
        <g clip-path="url(#d)" transform="matrix(1 0 0 1 -8 -16)">
            <path d="m 36 142 l 14 -56 l 22 34 z m 0 0" fill="#1a1a1a" fill-rule="evenodd"/>
        </g>
    </g>
    <g mask="url(#e)">
        <g clip-path="url(#f)" transform="matrix(1 0 0 1 -8 -16)">
            <path d="m 118 85 c 0 31 0 35 -46 35 s -46 -4 -46 -35 s 0 -35 46 -35 s 46 4 46 35 z m 0 0"/>
        </g>
    </g>
    <path d="m 28 124 l 14 -56 l 22 34 z m 0 0" fill="#ffffff" fill-rule="evenodd"/>
    <path d="m 110 67 c 0 31 0 35 -46 35 s -46 -4 -46 -35 s 0 -35 46 -35 s 46 4 46 35 z m 0 0" fill="#ffffff"/>
    <g fill="#332c45">
        <path d="m 64 62 c -2.773438 0 -5 2.289062 -5 5.007812 c 0 2.710938 2.226562 4.992188 5 4.992188 c 2.769531 0 5 -2.28125 5 -4.992188 c 0 -2.71875 -2.230469 -5.007812 -5 -5.007812 z m 0 0"/>
        <path d="m 84 62 c -2.773438 0 -5 2.289062 -5 5.007812 c 0 2.710938 2.226562 4.992188 5 4.992188 c 2.769531 0 5 -2.28125 5 -4.992188 c 0 -2.71875 -2.230469 -5.007812 -5 -5.007812 z m 0 0"/>
        <path d="m 44 62 c -2.773438 0 -5 2.289062 -5 5.007812 c 0 2.710938 2.226562 4.992188 5 4.992188 c 2.769531 0 5 -2.28125 5 -4.992188 c 0 -2.71875 -2.230469 -5.007812 -5 -5.007812 z m 0 0"/>
    </g>
</svg>
