<?xml version="1.0" encoding="UTF-8"?>
<svg height="128px" viewBox="0 0 128 128" width="128px" xmlns="http://www.w3.org/2000/svg" xmlns:xlink="http://www.w3.org/1999/xlink">
    <filter id="a" height="100%" width="100%" x="0%" y="0%">
        <feColorMatrix color-interpolation-filters="sRGB" values="0 0 0 0 1 0 0 0 0 1 0 0 0 0 1 0 0 0 1 0"/>
    </filter>
    <linearGradient id="b" gradientUnits="userSpaceOnUse" x1="11.999999" x2="116" y1="77.000007" y2="77.000007">
        <stop offset="0" stop-color="#c0bfbc"/>
        <stop offset="0.05" stop-color="#f6f5f4"/>
        <stop offset="0.1" stop-color="#deddda"/>
        <stop offset="0.9" stop-color="#deddda"/>
        <stop offset="0.95" stop-color="#f6f5f4"/>
        <stop offset="1" stop-color="#c0bfbc"/>
    </linearGradient>
    <mask id="c">
        <g filter="url(#a)">
            <rect fill-opacity="0.3" height="153.6" width="153.6" x="-12.8" y="-12.8"/>
        </g>
    </mask>
    <linearGradient id="d" gradientUnits="userSpaceOnUse">
        <stop offset="0" stop-color="#ffffff" stop-opacity="0"/>
        <stop offset="1" stop-color="#ffffff"/>
    </linearGradient>
    <linearGradient id="e" x1="20.000435" x2="124.000435" xlink:href="#d" y1="124.454839" y2="124.454839"/>
    <clipPath id="f">
        <rect height="152" width="192"/>
    </clipPath>
    <mask id="g">
        <g filter="url(#a)">
            <rect fill-opacity="0.3" height="153.6" width="153.6" x="-12.8" y="-12.8"/>
        </g>
    </mask>
    <linearGradient id="h" x1="20.000435" x2="124.000435" xlink:href="#d" y1="120.454833" y2="120.454833"/>
    <clipPath id="i">
        <rect height="152" width="192"/>
    </clipPath>
    <path d="m 19.429688 38 h 89.140624 c 4.105469 0 7.429688 3.175781 7.429688 7.089844 v 63.820312 c 0 3.914063 -3.324219 7.089844 -7.429688 7.089844 h -89.140624 c -4.105469 0 -7.429688 -3.175781 -7.429688 -7.089844 v -63.820312 c 0 -3.914063 3.324219 -7.089844 7.429688 -7.089844 z m 0 0" fill="#deddda"/>
    <path d="m 19.429688 38 h 89.140624 c 4.105469 0 7.429688 3.175781 7.429688 7.089844 v 63.820312 c 0 3.914063 -3.324219 7.089844 -7.429688 7.089844 h -89.140624 c -4.105469 0 -7.429688 -3.175781 -7.429688 -7.089844 v -63.820312 c 0 -3.914063 3.324219 -7.089844 7.429688 -7.089844 z m 0 0" fill="url(#b)"/>
    <path d="m 19.429688 28 h 89.140624 c 4.105469 0 7.429688 3.175781 7.429688 7.089844 v 63.820312 c 0 3.914063 -3.324219 7.089844 -7.429688 7.089844 h -89.140624 c -4.105469 0 -7.429688 -3.175781 -7.429688 -7.089844 v -63.820312 c 0 -3.914063 3.324219 -7.089844 7.429688 -7.089844 z m 0 0" fill="#ffffff"/>
    <g mask="url(#c)">
        <g clip-path="url(#f)" transform="matrix(1 0 0 1 -8 -16)">
            <path d="m 20 120.910156 v 2 c 0 3.929688 3.3125 7.089844 7.429688 7.089844 h 89.140624 c 4.117188 0 7.429688 -3.160156 7.429688 -7.089844 v -2 c 0 3.929688 -3.3125 7.089844 -7.429688 7.089844 h -89.140624 c -4.117188 0 -7.429688 -3.160156 -7.429688 -7.089844 z m 0 0" fill="url(#e)"/>
        </g>
    </g>
    <g mask="url(#g)">
        <g clip-path="url(#i)" transform="matrix(1 0 0 1 -8 -16)">
            <path d="m 20 116.910156 v 2 c 0 3.929688 3.3125 7.089844 7.429688 7.089844 h 89.140624 c 4.117188 0 7.429688 -3.160156 7.429688 -7.089844 v -2 c 0 3.929688 -3.3125 7.089844 -7.429688 7.089844 h -89.140624 c -4.117188 0 -7.429688 -3.160156 -7.429688 -7.089844 z m 0 0" fill="url(#h)"/>
        </g>
    </g>
    <path d="m 40.5 51.101562 h 2.773438 v -7.535156 h 0.097656 l 4.351562 7.535156 h 2.722656 v -12.246093 h -2.769531 v 7.535156 h -0.097656 l -4.328125 -7.535156 h -2.75 z m 11.742188 0 h 8.175781 v -2.296874 h -5.402344 v -2.679688 h 4.566406 v -2.292969 h -4.566406 v -2.679687 h 5.402344 v -2.296875 h -8.175781 z m 9.757812 -12.246093 l 3.105469 12.246093 h 2.828125 l 2.027344 -7.679687 h 0.09375 l 2.035156 7.679687 h 2.816406 l 3.109375 -12.246093 h -2.511719 l -2.050781 8.25 h -0.097656 l -2.128907 -8.25 h -2.4375 l -2.128906 8.226562 h -0.089844 l -2.058593 -8.226562 z m 17.148438 8.273437 c 0 2.894532 2.390624 4.136719 4.832031 4.136719 c 2.652343 0 4.519531 -1.289063 4.519531 -3.609375 c 0 -1.984375 -1.363281 -2.988281 -3.660156 -3.800781 l -0.332032 -0.144531 c -1.316406 -0.476563 -2.296874 -0.789063 -2.296874 -1.554688 c 0 -0.691406 0.765624 -1.148438 1.839843 -1.148438 c 1.195313 0 1.769531 0.574219 1.820313 1.484376 h 2.628906 c 0 -2.320313 -1.816406 -3.800782 -4.449219 -3.800782 c -2.628906 0 -4.542969 1.386719 -4.542969 3.445313 c 0 1.8125 1.507813 2.984375 3.539063 3.605469 l 0.238281 0.074218 c 1.890625 0.597656 2.535156 1.125 2.535156 1.863282 c 0 0.648437 -0.550781 1.289062 -1.839843 1.289062 c -1.292969 0 -2.105469 -0.640625 -2.152344 -1.835938 z m 0 0" fill="#9a9996"/>
    <g fill="#deddda">
        <path d="m 24 44.851562 h 12 v -6 h -12 z m 0 0"/>
        <path d="m 26 48.851562 h 8 v -6 h -8 z m 0 0"/>
        <path d="m 24 56.691406 h 80 v 8 h -80 z m 0 0"/>
        <path d="m 24 68.691406 h 52.089844 v 8 h -52.089844 z m 0 0"/>
        <path d="m 92 44.851562 h 12 v -6 h -12 z m 0 0"/>
        <path d="m 94 48.851562 h 8 v -6 h -8 z m 0 0"/>
    </g>
    <path d="m 80 94.691406 h 24 v -26 h -24 z m 0 0" fill="#c0bfbc"/>
    <path d="m 24 100.691406 h 24 v -18 h -24 z m 0 0" fill="#deddda"/>
    <path d="m 52 100.691406 h 24 v -18 h -24 z m 0 0" fill="#deddda"/>
    <path d="m 80 100.691406 h 24 v -4 h -24 z m 0 0" fill="#deddda"/>
    <path d="m 74 101 c 0 13.253906 -10.746094 24 -24 24 s -24 -10.746094 -24 -24 s 10.746094 -24 24 -24 s 24 10.746094 24 24 z m 0 0" fill="#1e73c8"/>
    <path d="m 74 98 c 0 13.253906 -10.746094 24 -24 24 s -24 -10.746094 -24 -24 s 10.746094 -24 24 -24 s 24 10.746094 24 24 z m 0 0" fill="#378bde"/>
    <path d="m 39.660156 76.363281 c -0.640625 0.308594 -1.265625 0.644531 -1.875 1.007813 h 0.246094 l 0.125 0.402344 l -0.355469 0.332031 l 1.511719 0.039062 l 0.230469 0.546875 l -1.699219 -0.0625 l -0.085938 -0.417968 l -0.988281 -0.21875 c -0.347656 0.234374 -0.683593 0.476562 -1.015625 0.726562 h 0.589844 v 0.398438 l -0.257812 0.347656 h -1.242188 v -0.054688 c -3.4375 2.8125 -6.03125 6.519532 -7.488281 10.714844 l 0.132812 0.0625 v 2.003906 l 1.003907 1.722656 l 0.820312 0.125 l 0.105469 -0.589843 l -0.964844 -1.492188 l -0.1875 -1.453125 h 0.5625 l 0.238281 1.492188 l 1.398438 2.042968 l -0.359375 0.660157 l 0.890625 1.359375 l 2.203125 0.550781 v -0.359375 l 0.882812 0.125 l -0.082031 0.632812 l 0.691406 0.125 l 1.070313 0.292969 l 1.511719 1.726563 l 1.933593 0.144531 l 0.1875 1.582031 l -1.320312 0.925782 l -0.0625 1.410156 l -0.1875 0.863281 l 1.910156 2.398437 l 0.144531 0.820313 s 0.695313 0.191406 0.777344 0.191406 c 0.085938 0 1.554688 1.113281 1.554688 1.113281 v 4.335938 l 0.527343 0.148438 l -0.359375 2 l 0.882813 1.179687 l -0.160157 1.980469 l 1.164063 2.054687 l 1.484375 1.296875 c 0.027344 0.007813 0.054688 0.011719 0.078125 0.015625 l 1.441406 0.027344 l 0.144531 -0.488281 l -1.105468 -0.929688 l 0.0625 -0.464844 l 0.199218 -0.566406 l 0.039063 -0.582031 l -0.746094 -0.023437 l -0.378906 -0.472657 l 0.621094 -0.597656 l 0.085937 -0.453125 l -0.695312 -0.199219 l 0.042968 -0.417969 l 0.988282 -0.148437 l 1.5 -0.726563 l 0.503906 -0.925781 l 1.578125 -2.019531 l -0.359375 -1.578125 l 0.484375 -0.84375 l 1.449219 0.046875 l 0.972656 -0.777344 l 0.320312 -3.046875 l 1.078126 -1.378906 l 0.191406 -0.886719 l -0.988282 -0.316406 l -0.652343 -1.066406 l -2.226563 -0.023438 l -1.765625 -0.675781 l -0.082031 -1.261719 l -0.589844 -1.03125 l -1.59375 -0.023437 l -0.921875 -1.449219 l -0.820312 -0.402344 l -0.042969 0.441406 l -1.488281 0.089844 l -0.550781 -0.761718 l -1.550782 -0.316407 l -1.28125 1.484375 l -2.015625 -0.34375 l -0.148437 -2.277344 l -1.472656 -0.253906 l 0.589843 -1.117187 l -0.167969 -0.640625 l -1.933593 1.296875 l -1.21875 -0.148438 l -0.429688 -0.953125 l 0.261719 -0.984375 l 0.671875 -1.234375 l 1.546875 -0.785156 h 2.980469 l -0.007813 0.910156 l 1.070313 0.5 l -0.085938 -1.558594 l 0.773438 -0.78125 l 1.558593 -1.023437 l 0.109376 -0.722656 l 1.550781 -1.621094 l 1.652343 -0.914063 l -0.144531 -0.121093 l 1.117188 -1.054688 l 0.410156 0.105469 l 0.191406 0.238281 l 0.425781 -0.472656 l 0.101563 -0.046875 l -0.464844 -0.066406 l -0.472656 -0.15625 v -0.457032 l 0.25 -0.203124 h 0.550781 l 0.253906 0.109374 l 0.21875 0.445313 l 0.265626 -0.039063 v -0.042968 l 0.078124 0.027344 l 0.773438 -0.117188 l 0.113281 -0.378906 l 0.4375 0.109375 v 0.410156 l -0.40625 0.285156 l 0.0625 0.449219 l 1.398438 0.433594 s 0.003906 0.003906 0.007812 0.019531 l 0.324219 -0.03125 l 0.019531 -0.609375 l -1.113281 -0.507812 l -0.0625 -0.292969 l 0.921875 -0.3125 l 0.039063 -0.886719 l -0.960938 -0.589844 l -0.066406 -1.492187 l -1.320313 0.652343 h -0.484375 l 0.125 -1.136718 l -1.796875 -0.425782 l -0.746093 0.5625 v 1.722657 l -1.34375 0.425781 l -0.535157 1.121094 l -0.582031 0.09375 v -1.4375 l -1.261719 -0.171875 l -0.628906 -0.410157 l -0.253906 -0.929687 l 2.253906 -1.324219 l 1.101563 -0.332031 l 0.113281 0.738281 l 0.613281 -0.03125 l 0.046875 -0.371094 l 0.640625 -0.09375 l 0.011719 -0.128906 l -0.273438 -0.113281 l -0.066406 -0.398437 l 0.789063 -0.066407 l 0.476562 -0.496093 l 0.027344 -0.035157 h 0.007812 l 0.144532 -0.148437 l 1.660156 -0.210938 l 0.730468 0.625 l -1.921874 1.027344 l 2.449218 0.578125 l 0.316406 -0.820313 h 1.070313 l 0.378906 -0.714843 l -0.757812 -0.191407 v -0.902343 l -2.371094 -1.054688 l -1.640625 0.1875 l -0.921875 0.488281 l 0.0625 1.175782 l -0.96875 -0.144532 l -0.148437 -0.652343 l 0.929687 -0.84375 l -1.683594 -0.082031 l -0.480469 0.144531 l -0.210937 0.566406 l 0.628906 0.109375 l -0.125 0.628906 l -1.070312 0.0625 l -0.167969 0.421875 l -1.550781 0.042969 s -0.042969 -0.882812 -0.105469 -0.882812 s 1.214844 -0.019532 1.214844 -0.019532 l 0.925781 -0.910156 l -0.503906 -0.25 l -0.671875 0.652344 l -1.113282 -0.0625 z m 26.019532 3.480469 l -0.765626 0.300781 l -0.488281 0.535157 l 0.113281 0.625 l 0.601563 0.082031 l 0.359375 0.910156 l 1.039062 -0.421875 l 0.171876 1.214844 h -0.3125 l -0.851563 -0.125 l -0.945313 0.160156 l -0.914062 1.292969 l -1.308594 0.207031 l -0.1875 1.121094 l 0.550782 0.128906 l -0.160157 0.722656 l -1.296875 -0.261718 l -1.191406 0.261718 l -0.253906 0.664063 l 0.207031 1.394531 l 0.699219 0.328125 l 1.171875 -0.007813 l 0.792969 -0.070312 l 0.242187 -0.632812 l 1.234375 -1.609376 l 0.816406 0.164063 l 0.800782 -0.726563 l 0.152343 0.570313 l 1.972657 1.335937 l -0.242188 0.320313 l -0.890625 -0.046875 l 0.34375 0.488281 l 0.546875 0.117188 l 0.640625 -0.265625 l -0.015625 -0.773438 l 0.289062 -0.144531 l -0.230468 -0.242187 l -1.316406 -0.734376 l -0.347657 -0.980468 h 1.097657 l 0.347656 0.347656 l 0.941406 0.816406 l 0.039062 0.984375 l 0.980469 1.039063 l 0.359375 -1.425782 l 0.675782 -0.371093 l 0.128906 1.167969 l 0.660156 0.726562 l 0.308594 -0.007812 c -0.882813 -2.1875 -2.085938 -4.234376 -3.566406 -6.074219 l -1.589844 -0.015625 l -0.109375 -0.359375 l 0.949219 -0.484375 c -0.699219 -0.796875 -1.453126 -1.546875 -2.25 -2.246094 z m -29.355469 0.25 c 0.046875 0 0 0.550781 0 0.550781 l -1.246094 0.078125 l -0.234375 -0.28125 l 0.882812 -0.253906 s 0.550782 -0.09375 0.597657 -0.09375 z m 1.515625 2.683594 l 0.597656 0.144531 l -0.207031 0.804687 l -0.648438 0.203126 l -0.40625 -0.839844 z m 1.636718 1.90625 h 0.992188 v 0.304687 h 0.21875 v 0.519531 h -1.511719 l -0.566406 -0.15625 l 0.140625 -0.363281 z m 1.480469 0.222656 l 0.519531 0.472656 l -0.519531 0.128906 z m 1.140625 0.726562 l 0.386719 0.242188 l -0.308594 0.253906 l -0.304687 -0.253906 z m -2.90625 0.082032 h 0.835938 l -1.070313 1.496094 l -0.441406 -0.238282 l 0.09375 -0.628906 z m 1.34375 0 h 0.847656 v 0.503906 l -0.378906 0.242188 l -0.46875 0.089843 z m 1.054688 0.554687 h 0.0625 l 0.960937 0.28125 v 0.488281 h -0.804687 l -0.21875 -0.316406 z m -0.398438 0.453125 v 0.492188 l -0.359375 0.363281 h -0.804687 l 0.125 -0.550781 l 0.382812 -0.035156 l 0.074219 -0.1875 z m 24.984375 2.085938 l -2.835937 0.21875 l -0.878906 0.472656 h -1.125 l -0.554688 -0.054688 l -1.363281 0.761719 v 1.433594 l -2.796875 2.019531 l 0.230468 0.863282 h 0.570313 l -0.148437 0.820312 l -0.398438 0.144531 l -0.023438 2.148438 l 2.417969 2.757812 h 1.046875 l 0.066406 -0.167969 h 1.890626 l 0.542968 -0.503906 h 1.074219 l 0.582031 0.589844 l 1.601563 0.164062 l -0.210938 2.128907 l 1.769531 3.136719 l -0.929687 1.785156 l 0.0625 0.84375 l 0.734375 0.734375 v 2.027343 l 0.964844 1.300782 v 0.886718 c 3.574218 -4.304687 5.53125 -9.726562 5.535156 -15.320312 c -0.007812 -2.324219 -0.351562 -4.632812 -1.019531 -6.855469 h -1.191407 l -1.230468 -0.917969 l -1.289063 0.128907 v 0.789062 h -0.410156 l -0.441406 -0.316406 l -2.242188 -0.570313 z m 0 0" fill="#53d795"/>
</svg>
