<?xml version="1.0" encoding="UTF-8"?>
<svg height="128px" viewBox="0 0 128 128" width="128px" xmlns="http://www.w3.org/2000/svg" xmlns:xlink="http://www.w3.org/1999/xlink">
    <radialGradient id="a" cx="-169.219925" cy="236.871399" gradientTransform="matrix(0.327348 1.221677 -1.065436 0.285474 360.422974 191.459045)" gradientUnits="userSpaceOnUse" r="59.503979">
        <stop offset="0" stop-color="#a38872"/>
        <stop offset="0.8" stop-color="#6b523b"/>
        <stop offset="1" stop-color="#523a24"/>
    </radialGradient>
    <radialGradient id="b" cx="-169.219925" cy="236.871399" gradientTransform="matrix(0.327348 1.221677 -1.065436 0.285474 360.422974 189.459045)" gradientUnits="userSpaceOnUse" r="59.503979">
        <stop offset="0" stop-color="#cdab8f"/>
        <stop offset="0.8" stop-color="#957253"/>
        <stop offset="1" stop-color="#7b5737"/>
    </radialGradient>
    <radialGradient id="c" cx="316.188507" cy="142.194519" gradientTransform="matrix(0.600265 -0.00755158 0 0.578125 -175.79509 -39.720856)" gradientUnits="userSpaceOnUse" r="32">
        <stop offset="0" stop-color="#d7d7e5"/>
        <stop offset="0.25" stop-color="#7474a5"/>
        <stop offset="0.775" stop-color="#12121c"/>
        <stop offset="1" stop-color="#12121c"/>
    </radialGradient>
    <path d="m 88.582031 21 l -41.035156 27.347656 h -43.050781 v 18 h 0.015625 c 0.027343 3.371094 0.34375 6.730469 0.941406 10.046875 l -0.050781 0.039063 l 0.074218 0.070312 c 3.058594 17.28125 13.585938 32.332032 28.773438 41.125 c 18.410156 10.628906 41.09375 10.628906 59.503906 0 c 18.332032 -10.585937 29.65625 -30.113281 29.746094 -51.28125 h 0.003906 v -0.085937 c 0 -0.054688 0 -0.109375 0.003906 -0.164063 h -0.003906 v -17.75 l -0.101562 -27.347656 l -35.167969 23.574219 z m 0 0" fill="url(#a)"/>
    <path d="m 88.582031 19 l -41.035156 27.347656 h -43.050781 v 18 h 0.015625 c 0.027343 3.371094 0.34375 6.730469 0.941406 10.046875 l -0.050781 0.039063 l 0.074218 0.070312 c 3.058594 17.28125 13.585938 32.332032 28.773438 41.125 c 18.410156 10.628906 41.09375 10.628906 59.503906 0 c 18.332032 -10.585937 29.65625 -30.113281 29.746094 -51.28125 h 0.003906 v -0.085937 c 0 -0.054688 0 -0.109375 0.003906 -0.164063 h -0.003906 v -17.75 l -0.101562 -27.347656 l -35.167969 23.574219 z m 0 0" fill="url(#b)"/>
    <path d="m 56 56.847656 c 1.933594 0 3.5 1.566406 3.5 3.5 v 14 c 0 1.933594 -1.566406 3.5 -3.5 3.5 c -1.929688 0 -3.5 -1.566406 -3.5 -3.5 v -14 c 0 -1.933594 1.570312 -3.5 3.5 -3.5 z m 0 0"/>
    <path d="m 57.289062 59.300781 c 0 -1.105469 -0.894531 -2 -2 -2 c -1.101562 0 -2 0.894531 -2 2 s 0.898438 2 2 2 c 1.105469 0 2 -0.894531 2 -2 z m 0 0" fill="#7a8599"/>
    <path d="m 75.625 56.847656 c 1.933594 0 3.5 1.566406 3.5 3.5 v 14 c 0 1.933594 -1.566406 3.5 -3.5 3.5 c -1.929688 0 -3.5 -1.566406 -3.5 -3.5 v -14 c 0 -1.933594 1.570312 -3.5 3.5 -3.5 z m 0 0"/>
    <path d="m 76.914062 59.300781 c 0 -1.105469 -0.894531 -2 -2 -2 c -1.101562 0 -2 0.894531 -2 2 s 0.898438 2 2 2 c 1.105469 0 2 -0.894531 2 -2 z m 0 0" fill="#7a8599"/>
    <path d="m 32 45.097656 c 0 8.285156 -6.714844 15 -15 15 c -8.28125 0 -15 -6.714844 -15 -15 s 6.71875 -15 15 -15 c 8.285156 0 15 6.714844 15 15 z m 0 0" fill="url(#c)"/>
</svg>
