<?xml version="1.0" encoding="UTF-8"?>
<svg height="128px" viewBox="0 0 128 128" width="128px" xmlns="http://www.w3.org/2000/svg" xmlns:xlink="http://www.w3.org/1999/xlink">
    <linearGradient id="a" gradientUnits="userSpaceOnUse">
        <stop offset="0" stop-color="#660000"/>
        <stop offset="0.05" stop-color="#b80000"/>
        <stop offset="0.0989812" stop-color="#7a0000"/>
        <stop offset="0.9" stop-color="#7a0000"/>
        <stop offset="0.95" stop-color="#b80000"/>
        <stop offset="1" stop-color="#660000"/>
    </linearGradient>
    <linearGradient id="b" gradientTransform="matrix(0.760349 0 0 0.758176 -2.482068 -120.060784)" x1="63.762905" x2="108.47921" xlink:href="#a" y1="190.009689" y2="190.009689"/>
    <linearGradient id="c" gradientTransform="matrix(0.760349 0 0 0.758176 -36.482068 -98.060783)" x1="63.762905" x2="108.47921" xlink:href="#a" y1="190.009689" y2="190.009689"/>
    <linearGradient id="d" gradientTransform="matrix(0.760349 0 0 0.758176 7.517932 -36.060783)" x1="63.762905" x2="108.47921" xlink:href="#a" y1="190.009689" y2="190.009689"/>
    <linearGradient id="e" gradientTransform="matrix(0.760349 0 0 0.758176 33.517933 -58.060779)" x1="63.762905" x2="108.47921" xlink:href="#a" y1="190.009689" y2="190.009689"/>
    <linearGradient id="f" gradientTransform="matrix(1.327299 0.766317 -0.766317 1.327299 -19.967796 -73.005123)" gradientUnits="userSpaceOnUse" x1="88.039268" x2="103.494011" y1="43.360554" y2="47.501637">
        <stop offset="0" stop-color="#4e9906"/>
        <stop offset="0.25" stop-color="#57ad07"/>
        <stop offset="0.5" stop-color="#438505"/>
        <stop offset="0.75" stop-color="#397004"/>
        <stop offset="1" stop-color="#2f5c03"/>
    </linearGradient>
    <linearGradient id="g" gradientTransform="matrix(-1.083736 -1.083736 -0.541953 0.541953 -125.666774 -237.89475)" gradientUnits="userSpaceOnUse" x1="-221.10257" x2="-237.10257" y1="92.796349" y2="92.796349">
        <stop offset="0" stop-color="#f6f5f4"/>
        <stop offset="1" stop-color="#9a9996"/>
    </linearGradient>
    <linearGradient id="h" gradientTransform="matrix(0.634512 0.634512 -0.629037 0.629037 95.573595 -177.353553)" gradientUnits="userSpaceOnUse" x1="157.46785" x2="181.141983" y1="276.506287" y2="276.506287">
        <stop offset="0" stop-color="#f6d32d"/>
        <stop offset="0.247804" stop-color="#f9f06b"/>
        <stop offset="1" stop-color="#f5c211"/>
    </linearGradient>
    <linearGradient id="i" gradientTransform="matrix(0.634512 0.634512 -0.632699 0.632699 96.525729 -178.305687)" gradientUnits="userSpaceOnUse" x1="157.36792" x2="181.04126" y1="262.657227" y2="262.657227">
        <stop offset="0" stop-color="#f6d32d"/>
        <stop offset="0.25" stop-color="#f9f06b"/>
        <stop offset="0.5" stop-color="#f6d32d"/>
        <stop offset="0.75" stop-color="#e5a50a"/>
        <stop offset="1" stop-color="#e5a50a"/>
    </linearGradient>
    <g fill="#cc0000">
        <path d="m 22.101562 49.054688 l 24.066407 24.011718 l 2.800781 -2.800781 l -24.066406 -24.015625 z m 0 0"/>
        <path d="m 61 23 l 0.035156 34 h 3.964844 l -0.035156 -34 z m 0 0"/>
        <path d="m 63.199219 72.175781 l 8.835937 32.832031 l 3.828125 -1.027343 l -8.835937 -32.832031 z m 0 0"/>
        <path d="m 78.601562 61.386719 l 24.066407 24.015625 l 2.800781 -2.800782 l -24.066406 -24.015624 z m 0 0"/>
    </g>
    <path d="m 48 16 h 30 c 1.105469 0 2 0.894531 2 2 v 12 c 0 1.105469 -0.894531 2 -2 2 h -30 c -1.105469 0 -2 -0.894531 -2 -2 v -12 c 0 -1.105469 0.894531 -2 2 -2 z m 0 0" fill="url(#b)"/>
    <path d="m 48 12 h 30 c 1.105469 0 2 0.894531 2 2 v 12 c 0 1.105469 -0.894531 2 -2 2 h -30 c -1.105469 0 -2 -0.894531 -2 -2 v -12 c 0 -1.105469 0.894531 -2 2 -2 z m 0 0" fill="#ac0000"/>
    <path d="m 49.5 14 h 27 c 0.828125 0 1.5 0.671875 1.5 1.5 v 9 c 0 0.828125 -0.671875 1.5 -1.5 1.5 h -27 c -0.828125 0 -1.5 -0.671875 -1.5 -1.5 v -9 c 0 -0.828125 0.671875 -1.5 1.5 -1.5 z m 0 0" fill="#8f0000"/>
    <path d="m 14 38 h 30 c 1.105469 0 2 0.894531 2 2 v 12 c 0 1.105469 -0.894531 2 -2 2 h -30 c -1.105469 0 -2 -0.894531 -2 -2 v -12 c 0 -1.105469 0.894531 -2 2 -2 z m 0 0" fill="url(#c)"/>
    <path d="m 14 34 h 30 c 1.105469 0 2 0.894531 2 2 v 12 c 0 1.105469 -0.894531 2 -2 2 h -30 c -1.105469 0 -2 -0.894531 -2 -2 v -12 c 0 -1.105469 0.894531 -2 2 -2 z m 0 0" fill="#ac0000"/>
    <path d="m 15.5 36 h 27 c 0.828125 0 1.5 0.671875 1.5 1.5 v 9 c 0 0.828125 -0.671875 1.5 -1.5 1.5 h -27 c -0.828125 0 -1.5 -0.671875 -1.5 -1.5 v -9 c 0 -0.828125 0.671875 -1.5 1.5 -1.5 z m 0 0" fill="#8f0000"/>
    <path d="m 58 100 h 30 c 1.105469 0 2 0.894531 2 2 v 12 c 0 1.105469 -0.894531 2 -2 2 h -30 c -1.105469 0 -2 -0.894531 -2 -2 v -12 c 0 -1.105469 0.894531 -2 2 -2 z m 0 0" fill="url(#d)"/>
    <path d="m 58 96 h 30 c 1.105469 0 2 0.894531 2 2 v 12 c 0 1.105469 -0.894531 2 -2 2 h -30 c -1.105469 0 -2 -0.894531 -2 -2 v -12 c 0 -1.105469 0.894531 -2 2 -2 z m 0 0" fill="#ac0000"/>
    <path d="m 59.5 98 h 27 c 0.828125 0 1.5 0.671875 1.5 1.5 v 9 c 0 0.828125 -0.671875 1.5 -1.5 1.5 h -27 c -0.828125 0 -1.5 -0.671875 -1.5 -1.5 v -9 c 0 -0.828125 0.671875 -1.5 1.5 -1.5 z m 0 0" fill="#8f0000"/>
    <path d="m 84 78 h 30 c 1.105469 0 2 0.894531 2 2 v 12 c 0 1.105469 -0.894531 2 -2 2 h -30 c -1.105469 0 -2 -0.894531 -2 -2 v -12 c 0 -1.105469 0.894531 -2 2 -2 z m 0 0" fill="url(#e)"/>
    <path d="m 84 74 h 30 c 1.105469 0 2 0.894531 2 2 v 12 c 0 1.105469 -0.894531 2 -2 2 h -30 c -1.105469 0 -2 -0.894531 -2 -2 v -12 c 0 -1.105469 0.894531 -2 2 -2 z m 0 0" fill="#ac0000"/>
    <path d="m 85.5 76 h 27 c 0.828125 0 1.5 0.671875 1.5 1.5 v 9 c 0 0.828125 -0.671875 1.5 -1.5 1.5 h -27 c -0.828125 0 -1.5 -0.671875 -1.5 -1.5 v -9 c 0 -0.828125 0.671875 -1.5 1.5 -1.5 z m 0 0" fill="#8f0000"/>
    <path d="m 103.355469 18.402344 c -2.3125 -1.21875 -5.234375 -0.851563 -7.183594 1.097656 l -17.34375 17.335938 l -3.175781 3.179687 l -18.5 18.5 c -8.667969 8.667969 -30.34375 30.34375 -28.171875 41.179687 l 4.335937 4.335938 c 10.835938 2.171875 32.511719 -19.507812 41.179688 -28.175781 l 17.339844 -17.34375 l 1.164062 -1.160157 l 3.171875 -3.175781 l 17.339844 -17.335937 c 2.402343 -2.402344 2.398437 -6.265625 0 -8.667969 l -8.671875 -8.671875 c -0.449219 -0.453125 -0.953125 -0.8125 -1.484375 -1.097656 z m 0 0" fill="url(#f)"/>
    <path d="m 80.996094 69.347656 l -17.335938 -17.335937 l -2.171875 2.167969 l 17.34375 17.339843 z m 0 0" fill="url(#g)"/>
    <path d="m 39.4375 93.632812 c -4.148438 -4.144531 -10.851562 -4.164062 -14.976562 -0.042968 c -6.246094 6.117187 -0.097657 11.78125 -5.773438 17.457031 c -0.921875 0.921875 -0.914062 2.40625 0.007812 3.328125 c 0.925782 0.925781 2.410157 0.929688 3.328126 0.011719 c 5.585937 -5.585938 11.191406 0.363281 17.457031 -5.773438 c 4.125 -4.125 4.105469 -10.832031 -0.042969 -14.980469 z m 0 0" fill="url(#h)"/>
    <path d="m 33.53125 87.730469 l 11.683594 11.683593 c 0.921875 0.917969 0.921875 2.414063 0 3.335938 s -2.414063 0.921875 -3.335938 0 l -11.683594 -11.683594 c -0.921874 -0.921875 -0.921874 -2.414062 0 -3.335937 c 0.921876 -0.921875 2.414063 -0.921875 3.335938 0 z m 0 0" fill="url(#i)"/>
    <path d="m 31.960938 104.449219 c -0.921876 0.921875 -2.414063 0.921875 -3.335938 0 s -0.921875 -2.417969 0 -3.339844 s 2.414062 -0.921875 3.335938 0 c 0.921874 0.921875 0.921874 2.417969 0 3.339844 z m 0 0" fill="#865e3c"/>
    <path d="m 29.4375 102.777344 l -11.066406 11.0625 c 0.210937 0.402344 0.539062 0.679687 0.859375 0.859375 l 11.0625 -11.0625 z m 0 0" fill="#865e3c"/>
</svg>
