<?xml version="1.0" encoding="UTF-8"?>
<svg height="128px" viewBox="0 0 128 128" width="128px" xmlns="http://www.w3.org/2000/svg" xmlns:xlink="http://www.w3.org/1999/xlink">
    <filter id="a" height="100%" width="100%" x="0%" y="0%">
        <feColorMatrix color-interpolation-filters="sRGB" values="0 0 0 0 1 0 0 0 0 1 0 0 0 0 1 0 0 0 1 0"/>
    </filter>
    <linearGradient id="b" gradientUnits="userSpaceOnUse" x1="100" x2="108" y1="83" y2="83">
        <stop offset="0" stop-color="#deddda"/>
        <stop offset="0.511049" stop-color="#ffffff"/>
        <stop offset="1" stop-color="#c0bfbc"/>
    </linearGradient>
    <mask id="c">
        <g filter="url(#a)">
            <rect fill-opacity="0.2" height="153.6" width="153.6" x="-12.8" y="-12.8"/>
        </g>
    </mask>
    <clipPath id="d">
        <rect height="152" width="192"/>
    </clipPath>
    <path d="m 20 28 v 92 h 80 c 4.433594 0 8 -3.566406 8 -8 v -76 c 0 -4.433594 -3.566406 -8 -8 -8 z m 0 0" fill="#3266a6"/>
    <path d="m 22 48 v 70 h 78 c 4.433594 0 8 -3.566406 8 -8 v -54 c 0 -4.433594 -3.566406 -8 -8 -8 z m 0 0" fill="url(#b)"/>
    <path d="m 20 28 v 84 h 80 c 4.433594 0 8 -3.566406 8 -8 v -68 c 0 -4.433594 -3.566406 -8 -8 -8 z m 0 0" fill="#3266a6"/>
    <path d="m 20 8 v 102 h 80 c 4.433594 0 8 -3.566406 8 -8 v -86 c 0 -4.433594 -3.566406 -8 -8 -8 z m 0 0" fill="#3e7fcf"/>
    <g mask="url(#c)">
        <g clip-path="url(#d)" transform="matrix(1 0 0 1 -8 -16)">
            <path d="m 30 24 h 2 v 102 h -2 z m 0 0" fill="#ffffff"/>
        </g>
    </g>
    <path d="m 42.367188 26 h 43.265624 c 2.410157 0 4.367188 1.957031 4.367188 4.367188 v 22.730468 c 0 2.414063 -1.957031 4.367188 -4.367188 4.367188 h -43.265624 c -2.410157 0 -4.367188 -1.953125 -4.367188 -4.367188 v -22.730468 c 0 -2.410157 1.957031 -4.367188 4.367188 -4.367188 z m 0 0" fill="#f6f5f4"/>
    <g fill="none" stroke="#deddda" stroke-linecap="round">
        <path d="m 43 32.734375 h 42"/>
        <path d="m 43 38.734375 h 42"/>
        <path d="m 43 44.734375 h 42"/>
        <path d="m 42.492188 50.734375 h 42"/>
    </g>
    <path d="m 80 7 h 14 v 114 h -14 z m 0 0" fill="#3d3846"/>
    <path d="m 80 110.078125 h 14 v 10.921875 h -14 z m 0 0" fill="#241f31"/>
</svg>
