<?xml version="1.0" encoding="UTF-8"?>
<svg height="128px" viewBox="0 0 128 128" width="128px" xmlns="http://www.w3.org/2000/svg" xmlns:xlink="http://www.w3.org/1999/xlink">
    <linearGradient id="a" gradientTransform="matrix(-0.535714 0 0 -0.535714 145.428543 147.571381)" gradientUnits="userSpaceOnUse" x1="104" x2="200" y1="44" y2="268">
        <stop offset="0" stop-color="#faf8f6"/>
        <stop offset="1" stop-color="#f1f0e9"/>
    </linearGradient>
    <path d="m 4 66 c 0 -33.136719 26.863281 -60 60 -60 s 60 26.863281 60 60 s -26.863281 60 -60 60 s -60 -26.863281 -60 -60 z m 0 0" fill="#dccfc1"/>
    <path d="m 4 64 c 0 -33.136719 26.863281 -60 60 -60 s 60 26.863281 60 60 s -26.863281 60 -60 60 s -60 -26.863281 -60 -60 z m 0 0" fill="url(#a)"/>
    <path d="m 40.167969 76.945312 l 30.386719 -20.257812 l -30.386719 -20.257812 v 12.289062 l 11.957031 7.96875 l -11.957031 7.96875 z m 0 0" fill="#20aa73"/>
    <path d="m 86.710938 51.445312 l -30.390626 20.257813 l 30.390626 20.257813 v -12.285157 l -11.957032 -7.972656 l 11.957032 -7.96875 z m 0 0" fill="#4a93dd"/>
    <path d="m 99.273438 43.566406 c 3.523437 6.035156 5.550781 13.050782 5.550781 20.542969 c 0 22.546875 -18.277344 40.824219 -40.824219 40.824219 c -13.277344 0 -25.074219 -6.347656 -32.53125 -16.164063 l -8.816406 5.878907 c 9.375 12.664062 24.417968 20.890624 41.347656 20.890624 c 28.359375 0 51.429688 -23.070312 51.429688 -51.429687 c 0 -9.65625 -2.679688 -18.699219 -7.332032 -26.429687 z m 0 0" fill="#20aa73"/>
    <path d="m 23.175781 64.109375 c 0 -22.546875 18.277344 -40.824219 40.824219 -40.824219 c 13.152344 0 24.84375 6.226563 32.308594 15.886719 l 8.832031 -5.886719 c -9.390625 -12.503906 -24.335937 -20.605468 -41.140625 -20.605468 c -28.359375 0 -51.429688 23.070312 -51.429688 51.429687 c 0 9.53125 2.617188 18.457031 7.152344 26.117187 l 8.828125 -5.882812 c -3.414062 -5.964844 -5.375 -12.871094 -5.375 -20.234375 z m 0 0" fill="#4a93dd"/>
</svg>
