<?xml version="1.0" encoding="UTF-8"?>
<svg height="128px" viewBox="0 0 128 128" width="128px" xmlns="http://www.w3.org/2000/svg" xmlns:xlink="http://www.w3.org/1999/xlink">
    <linearGradient id="a" gradientUnits="userSpaceOnUse" x1="7.9997405" x2="119.9997405" y1="115.999979" y2="115.999979">
        <stop offset="0" stop-color="#654f43"/>
        <stop offset="0.0357143" stop-color="#907668"/>
        <stop offset="0.0713653" stop-color="#654f43"/>
        <stop offset="0.928571" stop-color="#654f43"/>
        <stop offset="0.964286" stop-color="#907668"/>
        <stop offset="1" stop-color="#654f43"/>
    </linearGradient>
    <path d="m 16 40 h 96 c 4.417969 0 8 3.582031 8 8 v 60 c 0 4.417969 -3.582031 8 -8 8 h -96 c -4.417969 0 -8 -3.582031 -8 -8 v -60 c 0 -4.417969 3.582031 -8 8 -8 z m 0 0" fill="url(#a)"/>
    <path d="m 16 28 h 96 c 4.417969 0 8 3.582031 8 8 v 68 c 0 4.417969 -3.582031 8 -8 8 h -96 c -4.417969 0 -8 -3.582031 -8 -8 v -68 c 0 -4.417969 3.582031 -8 8 -8 z m 0 0" fill="#907668"/>
    <path d="m 55.339844 51.5 l -4.488282 0.035156 l 0.214844 36.964844 l 4.273438 -0.007812" fill="none" stroke="#564238" stroke-linejoin="round" stroke-width="3"/>
    <path d="m 83.996094 43.007812 l -4.496094 -0.007812 l 0.09375 17 l 4.402344 -0.007812" fill="none" stroke="#564238" stroke-linejoin="round" stroke-width="3"/>
    <path d="m 83.996094 80.007812 l -4.496094 -0.007812 l 0.09375 17 l 4.402344 -0.007812" fill="none" stroke="#564238" stroke-linejoin="round" stroke-width="3"/>
    <path d="m 73 51.5 h 5" fill="none" stroke="#564238" stroke-width="3"/>
    <path d="m 73 88.5 h 5" fill="none" stroke="#564238" stroke-width="3"/>
    <path d="m 44 70 h 6" fill="none" stroke="#564238" stroke-width="3"/>
    <g fill="#ead4bc" fill-rule="evenodd">
        <path d="m 55.589844 45.5 h 16.820312 c 0.324219 0 0.589844 0.265625 0.589844 0.589844 v 10.820312 c 0 0.324219 -0.265625 0.589844 -0.589844 0.589844 h -16.820312 c -0.324219 0 -0.589844 -0.265625 -0.589844 -0.589844 v -10.820312 c 0 -0.324219 0.265625 -0.589844 0.589844 -0.589844 z m 0 0"/>
        <path d="m 26.589844 64 h 16.820312 c 0.324219 0 0.589844 0.265625 0.589844 0.589844 v 10.820312 c 0 0.324219 -0.265625 0.589844 -0.589844 0.589844 h -16.820312 c -0.324219 0 -0.589844 -0.265625 -0.589844 -0.589844 v -10.820312 c 0 -0.324219 0.265625 -0.589844 0.589844 -0.589844 z m 0 0"/>
        <path d="m 55.589844 82.5 h 16.820312 c 0.324219 0 0.589844 0.265625 0.589844 0.589844 v 10.820312 c 0 0.324219 -0.265625 0.589844 -0.589844 0.589844 h -16.820312 c -0.324219 0 -0.589844 -0.265625 -0.589844 -0.589844 v -10.820312 c 0 -0.324219 0.265625 -0.589844 0.589844 -0.589844 z m 0 0"/>
        <path d="m 84.589844 91 h 16.820312 c 0.324219 0 0.589844 0.265625 0.589844 0.589844 v 10.820312 c 0 0.324219 -0.265625 0.589844 -0.589844 0.589844 h -16.820312 c -0.324219 0 -0.589844 -0.265625 -0.589844 -0.589844 v -10.820312 c 0 -0.324219 0.265625 -0.589844 0.589844 -0.589844 z m 0 0"/>
        <path d="m 84.589844 74 h 16.820312 c 0.324219 0 0.589844 0.265625 0.589844 0.589844 v 10.820312 c 0 0.324219 -0.265625 0.589844 -0.589844 0.589844 h -16.820312 c -0.324219 0 -0.589844 -0.265625 -0.589844 -0.589844 v -10.820312 c 0 -0.324219 0.265625 -0.589844 0.589844 -0.589844 z m 0 0"/>
        <path d="m 84.589844 54 h 16.820312 c 0.324219 0 0.589844 0.265625 0.589844 0.589844 v 10.820312 c 0 0.324219 -0.265625 0.589844 -0.589844 0.589844 h -16.820312 c -0.324219 0 -0.589844 -0.265625 -0.589844 -0.589844 v -10.820312 c 0 -0.324219 0.265625 -0.589844 0.589844 -0.589844 z m 0 0"/>
        <path d="m 84.589844 37 h 16.820312 c 0.324219 0 0.589844 0.265625 0.589844 0.589844 v 10.820312 c 0 0.324219 -0.265625 0.589844 -0.589844 0.589844 h -16.820312 c -0.324219 0 -0.589844 -0.265625 -0.589844 -0.589844 v -10.820312 c 0 -0.324219 0.265625 -0.589844 0.589844 -0.589844 z m 0 0"/>
    </g>
</svg>
