<?xml version="1.0" encoding="UTF-8"?>
<svg height="16px" viewBox="0 0 16 16" width="16px" xmlns="http://www.w3.org/2000/svg">
    <path d="m 8.003906 0 h -0.207031 l -0.203125 0.0117188 l -0.207031 0.0117187 l -0.199219 0.0195313 l -0.203125 0.0195312 l -0.015625 0.0039062 l 0.136719 0.9414058 l 0.351562 -0.039062 l 0.179688 -0.007812 l 0.183593 -0.007813 l 0.179688 -0.003906 l 0.238281 0.007812 l 0.230469 0.011719 l 0.234375 0.019531 l 0.175781 0.019531 l 0.109375 -0.945312 l -0.1875 -0.0234375 l -0.269531 -0.0195313 l -0.261719 -0.01562495 z m 5.820313 0.476562 c -0.941407 0 -1.707031 0.765626 -1.707031 1.703126 c 0 0.941406 0.765624 1.707031 1.707031 1.707031 c 0.941406 0 1.703125 -0.761719 1.703125 -1.707031 c 0 -0.9375 -0.761719 -1.703126 -1.703125 -1.703126 z m -2.875 0.085938 l -0.355469 0.882812 l 0.132812 0.054688 l 0.210938 0.09375 l 0.210938 0.097656 l 0.207031 0.109375 l 0.214843 0.117188 l 0.460938 -0.832031 l -0.222656 -0.125 l -0.234375 -0.121094 l -0.238281 -0.113282 l -0.242188 -0.109374 z m -5.929688 0.011719 l -0.132812 0.054687 l -0.179688 0.078125 l -0.175781 0.082031 l -0.171875 0.085938 l -0.171875 0.09375 l -0.167969 0.09375 l -0.164062 0.09375 l -0.167969 0.105469 l -0.15625 0.105469 l -0.160156 0.109374 l -0.109375 0.078126 l 0.5625 0.769531 l 0.097656 -0.074219 l 0.28125 -0.1875 l 0.144531 -0.089844 l 0.144532 -0.085937 l 0.152343 -0.085938 l 0.148438 -0.078125 l 0.15625 -0.078125 l 0.152343 -0.070312 l 0.160157 -0.066407 l 0.121093 -0.050781 z m 2.980469 1.605469 c -3.210938 0 -5.820312 2.609374 -5.820312 5.820312 c 0 3.214844 2.609374 5.820312 5.820312 5.820312 c 3.214844 0 5.824219 -2.605468 5.824219 -5.820312 c 0 -3.210938 -2.609375 -5.820312 -5.824219 -5.820312 z m -6.199219 0.769531 l -0.09375 0.113281 l -0.117187 0.152344 l -0.113282 0.152344 l -0.109374 0.160156 l -0.105469 0.160156 l -0.101563 0.164062 l -0.097656 0.167969 l -0.09375 0.167969 l -0.09375 0.171875 l -0.085938 0.171875 l -0.058593 0.125 l 0.863281 0.398438 l 0.050781 -0.109376 l 0.15625 -0.304687 l 0.171875 -0.296875 l 0.089844 -0.144531 l 0.09375 -0.136719 l 0.09375 -0.144531 l 0.101562 -0.136719 l 0.105469 -0.132812 l 0.082031 -0.105469 z m 8.613281 0.9375 c 0.941407 0 1.703126 0.761719 1.703126 1.703125 s -0.761719 1.703125 -1.703126 1.703125 c -0.941406 0 -1.703124 -0.761719 -1.703124 -1.703125 s 0.761718 -1.703125 1.703124 -1.703125 z m 4.722657 0.488281 l -0.855469 0.417969 l 0.09375 0.195312 l 0.085938 0.1875 l 0.082031 0.191407 l 0.074219 0.195312 l 0.070312 0.195312 l 0.0625 0.199219 l 0.058594 0.199219 l 0.050781 0.199219 l 0.027344 0.121093 l 0.925781 -0.210937 l -0.03125 -0.132813 l -0.054688 -0.226562 l -0.066406 -0.230469 l -0.070312 -0.21875 l -0.078125 -0.226562 l -0.085938 -0.21875 l -0.089843 -0.21875 l -0.097657 -0.210938 z m -15.011719 2.199219 v 0.007812 l -0.0625 0.398438 l -0.0390625 0.40625 l -0.0234375 0.40625 v 0.414062 l 0.0117188 0.207031 l 0.0078124 0.175782 l 0.9492188 -0.058594 l -0.007812 -0.167969 l -0.007813 -0.183593 l -0.003906 -0.179688 l 0.003906 -0.179688 l 0.007813 -0.183593 l 0.011718 -0.179688 l 0.015625 -0.175781 l 0.019531 -0.179688 l 0.023438 -0.175781 l 0.03125 -0.171875 z m 14.925781 1.664062 l -0.007812 0.125 l -0.011719 0.179688 l -0.011719 0.175781 l -0.019531 0.179688 l -0.054688 0.351562 l -0.035156 0.167969 l -0.035156 0.175781 l -0.085938 0.335938 l -0.019531 0.066406 l 0.90625 0.273437 l 0.023438 -0.082031 l 0.054687 -0.1875 l 0.046875 -0.195312 l 0.042969 -0.191407 l 0.039062 -0.195312 l 0.03125 -0.199219 l 0.027344 -0.199219 l 0.023438 -0.203125 l 0.015625 -0.203125 l 0.011719 -0.199219 l 0.007812 -0.136718 z m -13.726562 2.023438 l -0.898438 0.3125 l 0.0625 0.175781 l 0.066407 0.183594 l 0.074218 0.179687 l 0.078125 0.179688 l 0.082031 0.175781 l 0.085938 0.171875 l 0.09375 0.171875 l 0.09375 0.167969 l 0.097656 0.167969 l 0.101563 0.164062 l 0.046875 0.074219 l 0.796875 -0.523438 l -0.042969 -0.0625 l -0.089844 -0.144531 l -0.171875 -0.296875 l -0.15625 -0.304687 l -0.070312 -0.15625 l -0.066407 -0.15625 l -0.070312 -0.160157 l -0.058594 -0.160156 z m 12.726562 1.363281 l -0.019531 0.03125 l -0.085938 0.144531 l -0.09375 0.136719 l -0.097656 0.144531 l -0.101562 0.136719 l -0.101563 0.132812 l -0.105469 0.128907 l -0.113281 0.132812 l -0.109375 0.125 l -0.117187 0.125 l -0.117188 0.121094 l -0.035156 0.035156 l 0.664063 0.679688 l 0.042968 -0.042969 l 0.132813 -0.136719 l 0.132812 -0.140625 l 0.125 -0.144531 l 0.125 -0.148437 l 0.121094 -0.148438 l 0.117187 -0.152344 l 0.113282 -0.152344 l 0.109375 -0.160156 l 0.105469 -0.160156 l 0.101562 -0.164062 l 0.023438 -0.039063 z m -10.789062 1.59375 l -0.648438 0.695312 l 0.011719 0.007813 l 0.140625 0.128906 l 0.296875 0.242188 l 0.152344 0.117187 l 0.15625 0.113282 l 0.160156 0.109374 l 0.15625 0.105469 l 0.167969 0.105469 l 0.164062 0.09375 l 0.167969 0.09375 l 0.082031 0.042969 l 0.441407 -0.839844 l -0.066407 -0.035156 l -0.152343 -0.085938 l -0.144532 -0.085937 l -0.144531 -0.089844 l -0.28125 -0.1875 l -0.136719 -0.101562 l -0.136718 -0.105469 l -0.128907 -0.105469 l -0.132812 -0.105469 z m 8.273437 0.882812 l -0.023437 0.011719 l -0.148438 0.085938 l -0.304687 0.15625 l -0.152344 0.070312 l -0.160156 0.066407 l -0.160156 0.070312 l -0.160157 0.058594 l -0.164062 0.054687 l -0.160157 0.054688 l -0.167968 0.050781 l -0.027344 0.007812 l 0.25 0.917969 l 0.039062 -0.007812 l 0.375 -0.117188 l 0.183594 -0.070312 l 0.183594 -0.066407 l 0.179688 -0.074218 l 0.175781 -0.078125 l 0.175781 -0.082031 l 0.175781 -0.085938 l 0.34375 -0.1875 l 0.03125 -0.019531 z m -5.15625 0.761719 l -0.222656 0.921875 l 0.042969 0.007813 l 0.191406 0.042969 l 0.195313 0.039062 l 0.398437 0.0625 l 0.203125 0.019531 l 0.199219 0.019531 l 0.207031 0.011719 l 0.203125 0.011719 h 0.359375 l -0.011719 -0.953125 l -0.144531 0.003906 l -0.179688 -0.003906 l -0.183593 -0.007813 l -0.179688 -0.007812 l -0.351562 -0.039062 l -0.179688 -0.023438 l -0.34375 -0.0625 l -0.171875 -0.039062 z m 0 0"/>
</svg>
