<?xml version="1.0" encoding="UTF-8"?>
<svg height="16px" viewBox="0 0 16 16" width="16px" xmlns="http://www.w3.org/2000/svg" xmlns:xlink="http://www.w3.org/1999/xlink">
    <filter id="a" height="100%" width="100%" x="0%" y="0%">
        <feColorMatrix color-interpolation-filters="sRGB" values="0 0 0 0 1 0 0 0 0 1 0 0 0 0 1 0 0 0 1 0"/>
    </filter>
    <mask id="b">
        <g filter="url(#a)">
            <rect fill-opacity="0.1" height="19.2" width="19.2" x="-1.6" y="-1.6"/>
        </g>
    </mask>
    <clipPath id="c">
        <rect height="152" width="192"/>
    </clipPath>
    <g mask="url(#b)">
        <g clip-path="url(#c)" transform="matrix(1 0 0 1 -168 -16)">
            <path d="m 68.832031 68.972656 l 0.007813 0.296875 l -14.6875 21.328125 c -2.378906 -0.109375 -4.761719 0.308594 -7.027344 1.238282 c -0.988281 0.402343 -1.929688 0.90625 -2.8125 1.5 l -32.25 -13.285157 s 0.414062 13.03125 3.902344 21.667969 l 21.261718 9.15625 c 1.125 5.113281 4.648438 9.597656 9.832032 11.753906 c 8.484375 3.527344 18.222656 -0.484375 21.761718 -8.964844 c 0.90625 -2.167968 1.34375 -4.503906 1.28125 -6.855468 l 20.996094 -15.007813 l 0.515625 0.007813 c 12.578125 0 22.800781 -10.25 22.800781 -22.835938 c 0 -12.589844 -10.207031 -22.800781 -22.800781 -22.828125 c -12.570312 0 -22.796875 10.238281 -22.796875 22.828125 z m -3.523437 43.21875 c -2.726563 6.5625 -10.253906 9.648438 -16.792969 6.925782 c -2.902344 -1.21875 -5.253906 -3.464844 -6.609375 -6.304688 l 7.421875 3.074219 c 4.820313 2.007812 10.355469 -0.273438 12.359375 -5.097657 c 2.011719 -4.824218 -0.269531 -10.363281 -5.089844 -12.375 l -7.691406 -3.179687 c 2.960938 -1.125 6.324219 -1.160156 9.472656 0.144531 c 3.1875 1.320313 5.625 3.800782 6.933594 6.976563 c 1.304688 3.171875 1.296875 6.675781 -0.019531 9.835937 m 26.339843 -28.003906 c -8.390624 -0.023438 -15.179687 -6.824219 -15.1875 -15.210938 c 0.007813 -8.386718 6.800782 -15.1875 15.1875 -15.210937 c 8.390626 0.023437 15.183594 6.824219 15.195313 15.210937 c -0.007813 8.386719 -6.800781 15.191407 -15.195313 15.210938 m -11.378906 -15.234375 c -0.007812 -6.304687 5.097656 -11.417969 11.402344 -11.429687 c 6.292969 0 11.410156 5.117187 11.410156 11.429687 c 0.003906 6.300781 -5.101562 11.417969 -11.410156 11.421875 c -6.304688 -0.007812 -11.410156 -5.121094 -11.40625 -11.421875 z m 0 0"/>
        </g>
    </g>
    <path d="m 8 0 c -4.210938 0.0117188 -7.691406 3.28125 -7.9609375 7.484375 l 4.2695315 1.761719 c 0.117187 -0.082032 0.242187 -0.148438 0.375 -0.203125 c 0.300781 -0.121094 0.621094 -0.179688 0.9375 -0.164063 l 1.957031 -2.84375 v -0.039062 h -0.003906 c 0 -1.679688 1.363281 -3.042969 3.039062 -3.042969 c 1.679688 0.003906 3.042969 1.363281 3.042969 3.042969 c 0 1.679687 -1.363281 3.046875 -3.042969 3.046875 l -0.066406 -0.003907 l -2.796875 2.003907 c 0.007812 0.3125 -0.054688 0.621093 -0.175781 0.914062 c -0.46875 1.128907 -1.769531 1.664063 -2.898438 1.195313 c -0.691406 -0.289063 -1.164062 -0.886719 -1.3125 -1.570313 l -3.007812 -1.238281 c 1.03125 3.359375 4.132812 5.652344 7.644531 5.65625 c 4.417969 0 8 -3.582031 8 -8 s -3.582031 -8 -8 -8 z m -7.644531 10.34375 c -0.230469 -0.753906 -0.3476565 -1.535156 -0.355469 -2.320312 c 0.0117188 0.585937 0.0703125 1.53125 0.332031 2.308593 z m -0.355469 -2.320312 c 0 -0.015626 0.00390625 -0.027344 0 -0.042969 v 0.019531 z m 0 -0.042969 c 0.0078125 -0.164063 0.0195312 -0.332031 0.0390625 -0.496094 l -0.03125 -0.011719 s -0.0078125 0.203125 -0.0078125 0.507813 z m 10.617188 -4.011719 c -1.117188 0.003906 -2.023438 0.910156 -2.023438 2.027344 c 0 1.117187 0.90625 2.027344 2.023438 2.03125 c 1.117187 -0.003906 2.023437 -0.914063 2.027343 -2.03125 c -0.003906 -1.117188 -0.910156 -2.023438 -2.027343 -2.027344 z m 0.003906 0.5 c 0.839844 0 1.523437 0.683594 1.523437 1.527344 c 0 0.839844 -0.683593 1.519531 -1.523437 1.523437 c -0.839844 -0.003906 -1.523438 -0.683593 -1.519532 -1.523437 c -0.003906 -0.84375 0.679688 -1.527344 1.519532 -1.527344 z m -5.078125 4.917969 c -0.214844 0 -0.425781 0.035156 -0.625 0.113281 l 1.027343 0.421875 c 0.644532 0.269531 0.949219 1.007813 0.679688 1.652344 c -0.265625 0.640625 -1.003906 0.945312 -1.648438 0.675781 l -0.988281 -0.40625 c 0.179688 0.375 0.492188 0.675781 0.882813 0.839844 c 0.871094 0.359375 1.871094 -0.050782 2.234375 -0.925782 c 0.175781 -0.421874 0.175781 -0.886718 0 -1.308593 c -0.171875 -0.425781 -0.496094 -0.757813 -0.921875 -0.929688 c -0.210938 -0.089843 -0.425782 -0.132812 -0.640625 -0.132812 z m 0 0"/>
</svg>
