<?xml version="1.0" encoding="UTF-8"?>
<svg height="16px" viewBox="0 0 16 16" width="16px" xmlns="http://www.w3.org/2000/svg">
    <path d="m 8 0 c -0.300781 0 -0.601562 0.121094 -0.976562 0.367188 c -0.574219 0.371093 -1.035157 0.476562 -1.890626 0.421874 c -0.492187 -0.03125 -0.75 0.035157 -1.070312 0.273438 c -0.199219 0.148438 -0.246094 0.210938 -0.566406 0.757812 c -0.277344 0.46875 -0.773438 0.878907 -1.359375 1.117188 c -0.699219 0.28125 -0.933594 0.632812 -1.007813 1.484375 c -0.070312 0.84375 -0.21875 1.238281 -0.695312 1.835937 c -0.5156252 0.648438 -0.558594 1.070313 -0.195313 1.863282 c 0.304688 0.664062 0.363281 1.179687 0.210938 1.90625 c -0.160157 0.785156 0.007812 1.214844 0.671875 1.707031 c 0.585937 0.433594 0.855468 0.839844 1.109375 1.6875 c 0.207031 0.683594 0.550781 0.972656 1.324219 1.105469 c 0.746093 0.128906 1.171874 0.355468 1.699218 0.898437 c 0.316406 0.324219 0.546875 0.472657 0.816406 0.539063 c 0.296876 0.070312 0.546876 0.042968 1.011719 -0.109375 c 0.664063 -0.21875 1.175781 -0.21875 1.84375 0.003906 c 0.816407 0.269531 1.234375 0.167969 1.816407 -0.433594 c 0.527343 -0.542969 0.957031 -0.769531 1.703124 -0.898437 c 0.773438 -0.132813 1.117188 -0.421875 1.324219 -1.105469 c 0.253907 -0.847656 0.523438 -1.253906 1.109375 -1.6875 c 0.664063 -0.492187 0.832032 -0.921875 0.671875 -1.707031 c -0.152343 -0.726563 -0.09375 -1.242188 0.210938 -1.90625 c 0.363281 -0.792969 0.320312 -1.21875 -0.199219 -1.863282 c -0.464844 -0.582031 -0.640625 -1.0625 -0.703125 -1.917968 c -0.058594 -0.789063 -0.28125 -1.097656 -1.0625 -1.429688 c -0.546875 -0.234375 -1.046875 -0.652344 -1.289063 -1.085937 c -0.496093 -0.871094 -0.832031 -1.085938 -1.640624 -1.035157 c -0.855469 0.054688 -1.316407 -0.050781 -1.890626 -0.421874 c -0.375 -0.246094 -0.675781 -0.367188 -0.976562 -0.367188 z m -0.003906 2.003906 c 0.246094 0 0.453125 0.203125 0.453125 0.453125 v 0.679688 l -0.003907 0.203125 c -0.144531 -0.054688 -0.296874 -0.082032 -0.449218 -0.082032 c -0.15625 0 -0.308594 0.027344 -0.453125 0.085938 v -0.886719 c 0 -0.25 0.203125 -0.453125 0.453125 -0.453125 z m 0 1.792969 c 0.195312 0 0.382812 0.078125 0.523437 0.214844 c 0.136719 0.140625 0.214844 0.328125 0.214844 0.527343 c 0 0.40625 -0.332031 0.738282 -0.738281 0.738282 c -0.410156 0 -0.742188 -0.332032 -0.742188 -0.738282 c 0 -0.199218 0.078125 -0.386718 0.21875 -0.527343 c 0.136719 -0.136719 0.324219 -0.214844 0.523438 -0.214844 z m -1.25 0.46875 c -0.007813 0.027344 -0.011719 0.058594 -0.019532 0.085937 c 0.003907 -0.03125 0.015626 -0.058593 0.019532 -0.085937 z m 0.125 0.878906 c 0.222656 0.414063 0.652344 0.671875 1.125 0.675781 c 0.46875 0 0.898437 -0.257812 1.125 -0.667968 l 0.117187 0.253906 l 2.710938 5.578125 c 0.066406 0.128906 0.097656 0.273437 0.101562 0.417969 l 0.019531 0.765625 v 0.007812 c 0 0.109375 -0.089843 0.210938 -0.152343 0.242188 c -0.003907 0 -0.003907 0 -0.007813 0.003906 h -0.003906 c -0.039062 0.015625 -0.113281 0.015625 -0.1875 -0.003906 c -0.03125 -0.007813 -0.066406 -0.011719 -0.09375 -0.03125 v -0.003907 l -0.59375 -0.484374 c -0.113281 -0.09375 -0.203125 -0.210938 -0.265625 -0.339844 l -0.917969 -1.886719 c -0.59375 0.199219 -1.214844 0.304687 -1.847656 0.304687 s -1.257812 -0.105468 -1.855469 -0.308593 l -0.917969 1.890625 c -0.066406 0.128906 -0.15625 0.246094 -0.269531 0.339844 l -0.589843 0.484374 c -0.089844 0.074219 -0.234376 0.0625 -0.292969 0.035157 c -0.0625 -0.03125 -0.15625 -0.140625 -0.152344 -0.253907 v 0.003907 l 0.015625 -0.765625 c 0.003906 -0.148438 0.039062 -0.289063 0.101562 -0.421875 l 0.914063 -1.875 l 0.03125 0.015625 c -0.378906 -0.230469 -0.800781 -0.652344 -1.144531 -1.019532 c -0.347656 -0.371093 -0.605469 -0.683593 -0.605469 -0.683593 c -0.082031 -0.101563 -0.0625 -0.25 0.042969 -0.324219 l 0.789062 -0.558594 c 0.101563 -0.074218 0.246094 -0.046875 0.3125 0.058594 c 0.316406 0.480469 0.722656 0.886719 1.207032 1.210938 l 1.164062 -2.398438 z m 1.125 0.675781 l -0.082032 0.207032 l -1.136718 2.339844 c 0.402344 0.117187 0.8125 0.183593 1.226562 0.183593 c 0.414063 0 0.820313 -0.066406 1.210938 -0.179687 l -1.136719 -2.34375 z m 0 0"/>
</svg>
