<?xml version="1.0" encoding="UTF-8"?>
<svg height="16px" viewBox="0 0 16 16" width="16px" xmlns="http://www.w3.org/2000/svg">
    <path d="m 1.230469 0 c -0.683594 0 -1.230469 0.570312 -1.230469 1.28125 v 13.4375 c 0 0.710938 0.546875 1.28125 1.230469 1.28125 h 13.539062 c 0.683594 0 1.230469 -0.570312 1.230469 -1.28125 v -13.4375 c 0 -0.710938 -0.546875 -1.28125 -1.230469 -1.28125 z m 0.820312 2.300781 h 2.753907 c 0.769531 0 1.324218 0.214844 1.75 0.613281 c 0.34375 0.34375 0.503906 0.792969 0.503906 1.347657 v 0.03125 c 0 0.476562 -0.105469 0.875 -0.34375 1.191406 c -0.238282 0.292969 -0.554688 0.53125 -0.925782 0.660156 l 1.453126 2.125 h -1.535157 l -1.246093 -1.832031 h -1.085938 v 1.832031 h -1.324219 z m 5.910157 0 h 1.433593 l 1.5625 2.519531 l 1.5625 -2.519531 h 1.429688 v 5.96875 h -1.324219 v -3.898437 l -1.667969 2.546875 h -0.027343 l -1.667969 -2.523438 v 3.875 h -1.300781 z m -4.5625 1.167969 v 1.722656 h 1.328124 c 0.316407 0 0.582032 -0.078125 0.742188 -0.238281 c 0.1875 -0.160156 0.265625 -0.371094 0.265625 -0.609375 v -0.027344 c 0 -0.292968 -0.082031 -0.503906 -0.265625 -0.636718 c -0.1875 -0.128907 -0.425781 -0.210938 -0.769531 -0.210938 z m -1.128907 9.511719 h 5.734375 v 0.980469 h -5.734375 z m 0 0" fill-opacity="0.980392"/>
</svg>
