<?xml version="1.0" encoding="UTF-8"?>
<svg height="16px" viewBox="0 0 16 16" width="16px" xmlns="http://www.w3.org/2000/svg" xmlns:xlink="http://www.w3.org/1999/xlink">
    <filter id="a" height="100%" width="100%" x="0%" y="0%">
        <feColorMatrix color-interpolation-filters="sRGB" values="0 0 0 0 1 0 0 0 0 1 0 0 0 0 1 0 0 0 1 0"/>
    </filter>
    <mask id="b">
        <g filter="url(#a)">
            <rect fill-opacity="0.1" height="19.2" width="19.2" x="-1.6" y="-1.6"/>
        </g>
    </mask>
    <linearGradient id="c" gradientTransform="matrix(0.167815 0 0 -0.334166 66.203636 135.953308)" gradientUnits="userSpaceOnUse" x1="198.270004" x2="198.270004" y1="346.529999" y2="20.551001">
        <stop offset="0" stop-color="#9132e6" stop-opacity="0.996078"/>
        <stop offset="1" stop-color="#ba4ff6" stop-opacity="0.996078"/>
    </linearGradient>
    <clipPath id="d">
        <rect height="152" width="192"/>
    </clipPath>
    <path d="m 8.015625 14.542969 v -0.96875 c 3.074219 -0.007813 5.558594 -2.5 5.558594 -5.574219 s -2.484375 -5.566406 -5.558594 -5.574219 v -0.972656 c 3.609375 0.011719 6.53125 2.9375 6.53125 6.546875 s -2.921875 6.535156 -6.53125 6.546875 z m 0 -3.390625 c 1.734375 -0.011719 3.136719 -1.417969 3.136719 -3.152344 s -1.402344 -3.140625 -3.136719 -3.152344 v -0.96875 c 2.269531 0.007813 4.105469 1.851563 4.105469 4.121094 s -1.835938 4.109375 -4.105469 4.121094 z m 0 -4.847656 c 0.929687 0.007812 1.679687 0.761718 1.679687 1.695312 c 0 0.929688 -0.75 1.6875 -1.679687 1.695312 z m -8.015625 1.695312 c 0 4.417969 3.582031 8 8 8 s 8 -3.582031 8 -8 s -3.582031 -8 -8 -8 s -8 3.582031 -8 8 z m 0 0" fill-rule="evenodd"/>
    <g mask="url(#b)">
        <g clip-path="url(#d)" transform="matrix(1 0 0 1 -168 -16)">
            <path d="m 72.125 129.085938 c 30.210938 0 54.703125 -24.382813 54.703125 -54.46875 c 0 -30.082032 -24.492187 -54.464844 -54.703125 -54.464844 z m 0 0" fill="url(#c)" fill-rule="evenodd"/>
        </g>
    </g>
</svg>
