<?xml version="1.0" encoding="UTF-8"?>
<svg height="16px" viewBox="0 0 16 16" width="16px" xmlns="http://www.w3.org/2000/svg">
    <path d="m 3 0 h 5 l -5 5 z m 0 0"/>
    <path d="m 13 0 v 5 l -5 -5 z m 0 0"/>
    <path d="m 13 10 h -5 l 5 -5 z m 0 0"/>
    <path d="m 3 10 v -5 l 5 5 z m 0 0"/>
    <path d="m 8 10 h 5 l -5 5 z m 0 0"/>
    <path d="m 8 10 v 5 l -5 -5 z m 0 0"/>
</svg>
