<?xml version="1.0" encoding="UTF-8"?>
<svg height="16px" viewBox="0 0 16 16" width="16px" xmlns="http://www.w3.org/2000/svg">
    <path d="m 7.722656 0.160156 c -0.457031 0.300782 -0.589844 0.921875 -0.292968 1.390625 c 1.617187 2.570313 1.996093 4.507813 1.832031 6.207031 c -0.667969 3.253907 -2.125 3.914063 -3.394531 3.914063 c -1.242188 0 -0.910157 -2.097656 0.023437 -2.710937 c 0.554687 -0.355469 1.269531 -0.589844 1.816406 -0.589844 c 0.542969 0 0.984375 -0.449219 0.984375 -1.003906 c 0 -0.554688 -0.441406 -1.003907 -0.984375 -1.003907 c -0.640625 0 -1.265625 0.136719 -1.851562 0.371094 c 0.121093 -0.578125 0.164062 -1.207031 0.007812 -1.871094 c -0.234375 -1.011719 -0.910156 -1.976562 -2.085937 -2.914062 c -0.203125 -0.164063 -0.464844 -0.238281 -0.722656 -0.203125 c -0.257813 0.03125 -0.496094 0.167968 -0.65625 0.378906 c -0.332032 0.4375 -0.253907 1.070312 0.171874 1.410156 c 0.957032 0.765625 1.273438 1.328125 1.382813 1.792969 c 0.105469 0.464844 0.019531 0.964844 -0.195313 1.648437 c -0.277343 0.921876 -0.601562 1.746094 -0.742187 2.535157 c -0.070313 0.390625 -0.074219 0.8125 -0.09375 1.152343 c -0.6875 -0.691406 -0.957031 -1.601562 -0.957031 -2.929687 c 0 -0.554687 -0.441406 -1.003906 -0.984375 -1.003906 c -0.539063 0 -0.980469 0.449219 -0.980469 1.003906 c 0 1.816406 0.515625 3.542969 1.902344 4.695313 c 1.257812 1.226562 4.449218 0.773437 4.449218 2.742187 c 0 0.558594 0.792969 0.828125 1.335938 0.828125 c 0.554688 0 1.253906 -0.382812 1.253906 -0.828125 c 0 -2.234375 2.296875 -3.59375 6.074219 -3.585937 c 0.542969 0 0.984375 -0.449219 0.984375 -1.003907 c 0 -0.554687 -0.4375 -1.007812 -0.980469 -1.007812 c -0.257812 0 -0.511719 0.007812 -0.757812 0.023437 c 0.421875 -1.019531 0.609375 -2.140625 0.570312 -3.355468 c -0.019531 -0.554688 -0.472656 -0.988282 -1.015625 -0.972657 c -0.542968 0.019531 -0.96875 0.484375 -0.949218 1.039063 c 0.050781 1.589844 -0.007813 3.007812 -1.160157 3.753906 c -0.328125 0.210938 -0.707031 0.394531 -1.070312 0.394531 c 0.28125 -0.78125 0.492187 -1.609375 0.582031 -2.5 c 0.054688 -0.566406 0.058594 -1.242187 -0.003906 -1.765625 c -0.097656 -0.8125 -0.214844 -1.734375 0.085937 -2.429687 c 0.269531 -0.597657 0.875 -0.847657 1.761719 -0.847657 c 0.542969 -0.003906 0.980469 -0.453124 0.980469 -1.007812 c 0.003906 -0.554688 -0.4375 -1.003906 -0.980469 -1.003906 c -1.320312 0 -2.320312 0.710937 -2.886719 1.574218 c -0.296875 -0.652343 -0.660156 -1.320312 -1.097656 -2.015624 c -0.140625 -0.222657 -0.359375 -0.382813 -0.617187 -0.4375005 c -0.125 -0.02734375 -0.253907 -0.03125 -0.382813 -0.0078125 c -0.125 0.0234375 -0.246094 0.0742188 -0.355469 0.144531 z m 0 0"/>
</svg>
