<?xml version="1.0" encoding="UTF-8"?>
<svg height="16px" viewBox="0 0 16 16" width="16px" xmlns="http://www.w3.org/2000/svg" xmlns:xlink="http://www.w3.org/1999/xlink">
    <filter id="a" height="100%" width="100%" x="0%" y="0%">
        <feColorMatrix color-interpolation-filters="sRGB" values="0 0 0 0 1 0 0 0 0 1 0 0 0 0 1 0 0 0 1 0"/>
    </filter>
    <mask id="b">
        <g filter="url(#a)">
            <rect fill-opacity="0.5" height="19.2" width="19.2" x="-1.6" y="-1.6"/>
        </g>
    </mask>
    <clipPath id="c">
        <rect height="152" width="192"/>
    </clipPath>
    <mask id="d">
        <g filter="url(#a)">
            <rect fill-opacity="0.2" height="19.2" width="19.2" x="-1.6" y="-1.6"/>
        </g>
    </mask>
    <clipPath id="e">
        <rect height="152" width="192"/>
    </clipPath>
    <mask id="f">
        <g filter="url(#a)">
            <rect fill-opacity="0.2" height="19.2" width="19.2" x="-1.6" y="-1.6"/>
        </g>
    </mask>
    <clipPath id="g">
        <rect height="152" width="192"/>
    </clipPath>
    <path d="m 0.460938 0.613281 c -0.253907 0 -0.460938 0.207031 -0.460938 0.460938 v 13.847656 l 1.074219 1.074219 h 2.460937 v -5.535156 c 0 -0.339844 0.277344 -0.617188 0.617188 -0.617188 h 7.691406 c 0.34375 0 0.617188 0.277344 0.617188 0.617188 v 5.535156 h 3.074218 c 0.257813 0 0.464844 -0.203125 0.464844 -0.460938 v -14.460937 c 0 -0.253907 -0.207031 -0.460938 -0.464844 -0.460938 z m 12 15.382813 h -8.925782 v 0.003906 h 8.925782 z m -10.617188 -14.480469 h 12.308594 c 0.339844 0 0.617187 0.277344 0.617187 0.617187 v 5.847657 c 0 0.339843 -0.277343 0.613281 -0.617187 0.613281 h -12.308594 c -0.339844 0 -0.613281 -0.273438 -0.613281 -0.613281 v -5.847657 c 0 -0.339843 0.273437 -0.617187 0.613281 -0.617187 z m -1.539062 0.019531 h 0.617187 v 0.617188 h -0.617187 z m 5.230468 8.769532 v 4.925781 h 2.15625 v -4.925781 z m 0 0"/>
    <g mask="url(#b)">
        <g clip-path="url(#c)" transform="matrix(1 0 0 1 -168 -16)">
            <path d="m 172.152344 25.84375 c -0.339844 0 -0.613282 0.277344 -0.613282 0.617188 v 5.539062 h 8.921876 v -5.539062 c 0 -0.339844 -0.273438 -0.617188 -0.617188 -0.617188 z m 1.386718 0.460938 h 2.152344 v 4.925781 h -2.152344 z m 0 0"/>
        </g>
    </g>
    <g mask="url(#d)">
        <g clip-path="url(#e)" transform="matrix(1 0 0 1 -168 -16)">
            <path d="m 47 88 c -2.214844 0 -4 1.785156 -4 4 v 1 c 0 -2.214844 1.785156 -4 4 -4 h 65 c 2.214844 0 4 1.785156 4 4 v -1 c 0 -2.214844 -1.785156 -4 -4 -4 z m 0 0"/>
        </g>
    </g>
    <g mask="url(#f)">
        <g clip-path="url(#g)" transform="matrix(1 0 0 1 -168 -16)">
            <path d="m 56 91 h 14 v 1 h -14 z m 0 0"/>
        </g>
    </g>
</svg>
