<?xml version="1.0" encoding="UTF-8"?>
<svg height="16px" viewBox="0 0 16 16" width="16px" xmlns="http://www.w3.org/2000/svg" xmlns:xlink="http://www.w3.org/1999/xlink">
    <filter id="a" height="100%" width="100%" x="0%" y="0%">
        <feColorMatrix color-interpolation-filters="sRGB" values="0 0 0 0 1 0 0 0 0 1 0 0 0 0 1 0 0 0 1 0"/>
    </filter>
    <mask id="b">
        <g filter="url(#a)">
            <rect fill-opacity="0.623" height="19.2" width="19.2" x="-1.6" y="-1.6"/>
        </g>
    </mask>
    <clipPath id="c">
        <rect height="152" width="192"/>
    </clipPath>
    <mask id="d">
        <g filter="url(#a)">
            <rect fill-opacity="0.9" height="19.2" width="19.2" x="-1.6" y="-1.6"/>
        </g>
    </mask>
    <clipPath id="e">
        <rect height="152" width="192"/>
    </clipPath>
    <g mask="url(#b)">
        <g clip-path="url(#c)" transform="matrix(1 0 0 1 -168 -16)">
            <path d="m 28 59.1875 h 88 v 2 h -88 z m 0 0" fill="#fcaf3e"/>
        </g>
    </g>
    <g mask="url(#d)">
        <g clip-path="url(#e)" transform="matrix(1 0 0 1 -168 -16)">
            <path d="m 28.007812 67.191406 h 3.667969 v -6.003906 h 9.167969 v -6.003906 h 1.832031 v 12.007812 h 5.5 v -6.003906 h 3.667969 v 0.003906 h 7.328125 v -6.007812 h 1.835937 v 12.011718 h 5.5 v -6.003906 h 11 v -6.007812 h 1.832032 v 12.011718 h 5.5 v -6.003906 h 9.167968 v -6.007812 h 1.832032 v 12.011718 h 5.5 v -6.003906 h 3.667968 v -2.003906 h -5.5 v 6.003906 h -1.835937 v -12.007812 h -5.5 v 6.003906 h -9.164063 v 6.003906 h -1.835937 v -12.007812 h -5.5 v 6.003906 h -11 v 6.003906 h -1.832031 v -12.007812 h -5.496094 v 6.003906 h -11 v 6.003906 h -1.835938 v -12.007812 h -5.5 v 6.003906 h -9.164062 v 6.003906 h -1.835938 z m 0 0" fill="#fcaf3e" fill-rule="evenodd"/>
        </g>
    </g>
    <path d="m 3.152344 0 v 2.152344 h -0.402344 c -0.960938 0 -1.75 0.84375 -1.75 1.886718 v 8.078126 c 0 1.039062 0.789062 1.882812 1.75 1.882812 h 10.5 c 0.960938 0 1.75 -0.84375 1.75 -1.882812 v -8.078126 c 0 -1.042968 -0.789062 -1.886718 -1.75 -1.886718 h -0.402344 v -2.152344 h -2.15625 v 2.152344 h -5.382812 v -2.152344 z m 0.339844 3.230469 h 9.015624 c 0.777344 0 1.414063 0.636719 1.414063 1.414062 v 2.894531 c -0.15625 0.605469 -0.691406 1.078126 -1.34375 1.078126 h -9.15625 c -0.652344 0 -1.1875 -0.472657 -1.34375 -1.078126 v -2.894531 c 0 -0.777343 0.636719 -1.414062 1.414063 -1.414062 z m 0.738281 1.078125 v 2.152344 h -1.078125 v 1.078124 h 2.15625 v -2.15625 h 2.152344 v 2.15625 h 5.386718 v -1.078124 h -4.308594 v -2.152344 z m 0.539062 5.382812 c 0.890625 0 1.613281 0.722656 1.613281 1.617188 c 0 0.890625 -0.722656 1.613281 -1.613281 1.613281 s -1.617187 -0.722656 -1.617187 -1.613281 c 0 -0.894532 0.726562 -1.617188 1.617187 -1.617188 z m 6.460938 0 c 0.894531 0 1.617187 0.722656 1.617187 1.617188 c 0 0.890625 -0.722656 1.613281 -1.617187 1.613281 s -1.613281 -0.722656 -1.613281 -1.613281 c 0 -0.894532 0.71875 -1.617188 1.613281 -1.617188 z m -8.078125 5.386719 v 1.074219 h 2.15625 v -1.074219 z m 7.539062 0 v 1.074219 h 2.15625 v -1.074219 z m 0 0"/>
</svg>
