<?xml version="1.0" encoding="UTF-8"?>
<svg height="16px" viewBox="0 0 16 16" width="16px" xmlns="http://www.w3.org/2000/svg" xmlns:xlink="http://www.w3.org/1999/xlink">
    <filter id="a" height="100%" width="100%" x="0%" y="0%">
        <feColorMatrix color-interpolation-filters="sRGB" values="0 0 0 0 1 0 0 0 0 1 0 0 0 0 1 0 0 0 1 0"/>
    </filter>
    <mask id="b">
        <g filter="url(#a)">
            <rect fill-opacity="0.5" height="19.2" width="19.2" x="-1.6" y="-1.6"/>
        </g>
    </mask>
    <clipPath id="c">
        <rect height="152" width="192"/>
    </clipPath>
    <mask id="d">
        <g filter="url(#a)">
            <rect fill-opacity="0.5" height="19.2" width="19.2" x="-1.6" y="-1.6"/>
        </g>
    </mask>
    <clipPath id="e">
        <rect height="152" width="192"/>
    </clipPath>
    <g mask="url(#b)">
        <g clip-path="url(#c)" transform="matrix(1 0 0 1 -168 -16)">
            <path d="m 179.6875 17.9375 c -0.210938 -0.71875 -0.867188 -1.210938 -1.613281 -1.210938 h -0.492188 c -0.8125 0 -1.507812 0.582032 -1.65625 1.378907 l -0.839843 4.589843 l 0.207031 -0.714843 c 0.210937 -0.71875 0.867187 -1.214844 1.617187 -1.214844 h 2.855469 l 1.199219 0.46875 l 1.152344 -0.46875 h -0.335938 c -0.746094 0 -1.40625 -0.492187 -1.617188 -1.207031 z m 0 0"/>
        </g>
    </g>
    <g mask="url(#d)">
        <g clip-path="url(#e)" transform="matrix(1 0 0 1 -168 -16)">
            <path d="m 172.484375 30.058594 c 0.207031 0.71875 0.867187 1.214844 1.617187 1.214844 h 1.042969 c 0.914063 0 1.660157 -0.726563 1.683594 -1.640626 l 0.113281 -4.421874 l -0.238281 0.8125 c -0.207031 0.714843 -0.867187 1.210937 -1.613281 1.210937 h -2.882813 l -1.023437 -0.558594 l -1.113282 0.558594 h 0.332032 c 0.75 0 1.410156 0.492187 1.617187 1.214844 z m 0 0"/>
        </g>
    </g>
    <path d="m 10 0.726562 h -5.832031 c -1.667969 0 -2.667969 2.203126 -3.332031 4.40625 c -0.7929692 2.609376 -1.824219 6.097657 1.164062 6.097657 h 2.519531 c 0.753907 0 1.414063 -0.496094 1.621094 -1.21875 c 0.4375 -1.535157 1.203125 -4.207031 1.808594 -6.242188 c 0.304687 -1.03125 0.558593 -1.921875 0.953125 -2.472656 c 0.21875 -0.308594 0.585937 -0.570313 1.097656 -0.570313 z m 0 0"/>
    <path d="m 6 15.273438 h 5.832031 c 1.667969 0 2.667969 -2.203126 3.332031 -4.40625 c 0.792969 -2.609376 1.824219 -6.101563 -1.164062 -6.101563 h -2.519531 c -0.753907 0 -1.414063 0.5 -1.621094 1.222656 c -0.4375 1.53125 -1.203125 4.207031 -1.808594 6.238281 c -0.304687 1.035157 -0.558593 1.925782 -0.953125 2.476563 c -0.21875 0.308594 -0.585937 0.570313 -1.097656 0.570313 z m 0 0"/>
</svg>
