<?xml version="1.0" encoding="UTF-8"?>
<svg height="16px" viewBox="0 0 16 16" width="16px" xmlns="http://www.w3.org/2000/svg" xmlns:xlink="http://www.w3.org/1999/xlink">
    <filter id="a" height="100%" width="100%" x="0%" y="0%">
        <feColorMatrix color-interpolation-filters="sRGB" values="0 0 0 0 1 0 0 0 0 1 0 0 0 0 1 0 0 0 1 0"/>
    </filter>
    <mask id="b">
        <g filter="url(#a)">
            <rect fill-opacity="0.1" height="19.2" width="19.2" x="-1.6" y="-1.6"/>
        </g>
    </mask>
    <clipPath id="c">
        <rect height="152" width="192"/>
    </clipPath>
    <g mask="url(#b)">
        <g clip-path="url(#c)" transform="matrix(1 0 0 1 -168 -16)">
            <path d="m 113.792969 59.871094 v 48.257812 l -41.792969 24.128906 v -48.257812 z m 0 0"/>
            <path d="m 72 84 v -48.257812 l -41.792969 24.128906 z m 0 0"/>
            <path d="m 32.074219 52.894531 c -4.320313 2.496094 -6.976563 7.09375 -6.976563 12.082031 v 38.046876 c 0 4.988281 2.65625 9.585937 6.976563 12.082031 l 32.949219 19.023437 c 4.320312 2.496094 9.628906 2.496094 13.953124 0 l 32.949219 -19.023437 c 4.320313 -2.496094 6.976563 -7.09375 6.976563 -12.082031 v -38.046876 c 0 -4.988281 -2.65625 -9.585937 -6.976563 -12.082031 l -32.949219 -19.023437 c -4.324218 -2.496094 -9.632812 -2.496094 -13.953124 0 z m 41.796875 -10.175781 l 32.945312 19.019531 c 1.152344 0.667969 1.871094 1.910157 1.871094 3.238281 v 38.046876 c 0 1.328124 -0.71875 2.570312 -1.871094 3.238281 l -32.945312 19.019531 c -1.152344 0.664062 -2.589844 0.664062 -3.742188 0 l -32.945312 -19.019531 c -1.152344 -0.667969 -1.871094 -1.910157 -1.871094 -3.238281 v -38.046876 c 0 -1.328124 0.71875 -2.570312 1.871094 -3.238281 l 32.945312 -19.019531 c 1.152344 -0.664062 2.589844 -0.664062 3.742188 0 z m 0 0"/>
        </g>
    </g>
    <path d="m 8.015625 0 c -0.371094 0 -0.742187 0.0976562 -1.074219 0.289062 l -5.066406 2.925782 c -0.667969 0.382812 -1.074219 1.089844 -1.074219 1.859375 v 5.851562 c 0 0.769531 0.40625 1.476563 1.074219 1.859375 l 5.066406 2.925782 c 0.664063 0.386718 1.484375 0.386718 2.148438 0 l 5.066406 -2.925782 c 0.667969 -0.382812 1.074219 -1.089844 1.074219 -1.859375 v -5.851562 c 0 -0.769531 -0.40625 -1.476563 -1.074219 -1.859375 l -5.066406 -2.925782 c -0.332032 -0.1914058 -0.703125 -0.289062 -1.074219 -0.289062 z m 0 1.570312 c 0.097656 0 0.199219 0.027344 0.289063 0.078126 l 5.066406 2.925781 c 0.089844 0.050781 0.160156 0.125 0.210937 0.210937 l -5.566406 3.214844 v 6.429688 c -0.097656 0 -0.199219 -0.027344 -0.289063 -0.078126 l -5.066406 -2.925781 c -0.179687 -0.101562 -0.289062 -0.292969 -0.289062 -0.5 v -5.851562 c 0 -0.101563 0.027344 -0.203125 0.078125 -0.289063 l 5.566406 3.214844 z m 4.332031 5.464844 c 0.082032 0.007813 0.140625 0.066406 0.140625 0.15625 v 0.425782 l 0.957031 -0.554688 c 0.074219 -0.042969 0.136719 -0.015625 0.136719 0.0625 v 0.28125 c 0 0.078125 -0.0625 0.175781 -0.136719 0.222656 l -0.410156 0.234375 v 2.679688 c 0 0.140625 -0.136718 0.363281 -0.273437 0.441406 l -2.464844 1.421875 c -0.136719 0.078125 -0.273437 0.015625 -0.273437 -0.125 v -2.679688 l -0.410157 0.238282 c -0.074219 0.042968 -0.136719 0.015625 -0.136719 -0.0625 v -0.28125 c 0 -0.078125 0.0625 -0.175782 0.136719 -0.21875 l 0.957031 -0.554688 v -0.421875 c 0 -0.140625 0.136719 -0.363281 0.273438 -0.441406 l 1.371094 -0.789063 c 0.03125 -0.019531 0.066406 -0.03125 0.097656 -0.035156 z m -0.359375 0.597656 c -0.015625 0.003907 -0.03125 0.007813 -0.046875 0.015626 l -0.824218 0.476562 c -0.066407 0.039062 -0.136719 0.148438 -0.136719 0.21875 v 0.140625 l 1.097656 -0.632813 v -0.140624 c 0 -0.050782 -0.039063 -0.082032 -0.089844 -0.078126 z m 0.5 0.546876 l -1.917969 1.105468 v 2.398438 l 1.917969 -1.105469 z m -0.503906 0.75 c 0.054687 0.003906 0.09375 0.050781 0.09375 0.121093 v 1.128907 c 0 0.117187 -0.09375 0.265624 -0.207031 0.332031 c -0.113282 0.066406 -0.207032 0.023437 -0.207032 -0.09375 v -1.128907 c 0 -0.117187 0.09375 -0.265624 0.207032 -0.328124 c 0.042968 -0.027344 0.082031 -0.035157 0.113281 -0.03125 z m -0.683594 0.394531 c 0.054688 0.003906 0.089844 0.050781 0.089844 0.121093 v 1.128907 c 0 0.117187 -0.089844 0.265625 -0.203125 0.332031 s -0.207031 0.023438 -0.207031 -0.09375 v -1.128906 c 0 -0.117188 0.09375 -0.265625 0.207031 -0.328125 c 0.042969 -0.027344 0.082031 -0.035157 0.113281 -0.03125 z m 0 0"/>
</svg>
