<?xml version="1.0" encoding="UTF-8"?>
<svg height="16px" viewBox="0 0 16 16" width="16px" xmlns="http://www.w3.org/2000/svg">
    <path d="m 0 1.070312 l 8 13.859376 l 8 -13.859376 h -3.847656 l -0.886719 1.539063 h 2.273437 l -5.539062 9.652344 l -5.539062 -9.652344 h 2.273437 l -0.886719 -1.539063 z m 3.847656 2.464844 l 4.152344 7.382813 l 4.152344 -7.382813 h -1.417969 l -2.734375 4.730469 l -2.734375 -4.730469 z m 0 0"/>
</svg>
