<?xml version="1.0" encoding="UTF-8"?>
<svg height="16px" viewBox="0 0 16 16" width="16px" xmlns="http://www.w3.org/2000/svg">
    <path d="m 6.988281 15.6875 l -6.566406 -3.003906 c -0.5625 -0.265625 -0.5625 -0.667969 0 -0.910156 l 2.277344 -1.058594 l 4.261719 1.96875 c 0.640624 0.257812 1.355468 0.257812 1.996093 0 l 4.25 -1.96875 l 2.289063 1.058594 c 0.550781 0.253906 0.550781 0.671874 0 0.910156 l -6.566406 3.003906 c -0.625 0.242188 -1.316407 0.242188 -1.941407 0 z m 0 0"/>
    <path d="m 6.988281 11.988281 l -6.566406 -3.015625 c -0.5625 -0.265625 -0.5625 -0.667968 0 -0.910156 l 2.199219 -1.03125 l 4.367187 1.996094 c 0.636719 0.253906 1.347657 0.253906 1.984375 0 l 4.367188 -1.996094 l 2.238281 1.03125 c 0.5625 0.269531 0.5625 0.667969 0 0.910156 l -6.566406 3.015625 c -0.648438 0.265625 -1.375 0.265625 -2.023438 0 z m 0 0"/>
    <path d="m 6.988281 8.371094 l -6.566406 -3.003906 c -0.5625 -0.265626 -0.5625 -0.667969 0 -0.910157 l 6.566406 -3.015625 c 0.632813 -0.265625 1.347657 -0.265625 1.984375 0 l 6.566406 3.015625 c 0.5625 0.253907 0.5625 0.671875 0 0.910157 l -6.566406 3.003906 c -0.640625 0.238281 -1.34375 0.238281 -1.984375 0 z m 0 0"/>
</svg>
