<?xml version="1.0" encoding="UTF-8"?>
<svg height="16px" viewBox="0 0 16 16" width="16px" xmlns="http://www.w3.org/2000/svg">
    <path d="m 1.195312 0.636719 c -0.664062 0 -1.195312 0.53125 -1.195312 1.195312 v 12.972657 c 0 0.664062 0.53125 1.195312 1.195312 1.195312 h 13.609376 c 0.664062 0 1.195312 -0.53125 1.195312 -1.195312 v -12.972657 c 0 -0.664062 -0.53125 -1.195312 -1.195312 -1.195312 z m 0.832032 1.167969 h 11.945312 c 0.433594 0 0.785156 0.351562 0.785156 0.785156 v 8.546875 c 0 0.433593 -0.351562 0.785156 -0.785156 0.785156 h -11.945312 c -0.433594 0 -0.785156 -0.351563 -0.785156 -0.785156 v -8.546875 c 0 -0.433594 0.351562 -0.785156 0.785156 -0.785156 z m 8.066406 10.632812 c 0.03125 -0.003906 0.0625 0.019531 0.074219 0.050781 l 0.125 0.316407 l 0.34375 -0.015626 c 0.074219 -0.007812 0.113281 0.089844 0.054687 0.136719 l -0.265625 0.21875 l 0.125 0.320313 c 0.023438 0.070312 -0.050781 0.132812 -0.113281 0.09375 l -0.292969 -0.183594 l -0.269531 0.21875 c -0.054688 0.042969 -0.140625 -0.007812 -0.121094 -0.082031 l 0.082032 -0.335938 l -0.285157 -0.1875 c -0.0625 -0.039062 -0.035156 -0.132812 0.035157 -0.136719 l 0.34375 -0.027343 l 0.089843 -0.332031 c 0.007813 -0.03125 0.039063 -0.050782 0.074219 -0.054688 z m 1.742188 0 c 0.035156 0 0.066406 0.019531 0.078124 0.050781 l 0.128907 0.316407 l 0.34375 -0.015626 c 0.074219 -0.007812 0.109375 0.089844 0.050781 0.136719 l -0.261719 0.21875 l 0.121094 0.320313 c 0.027344 0.070312 -0.050781 0.132812 -0.117187 0.09375 l -0.285157 -0.183594 l -0.269531 0.21875 c -0.058594 0.046875 -0.144531 -0.007812 -0.125 -0.082031 l 0.082031 -0.335938 l -0.28125 -0.1875 c -0.0625 -0.039062 -0.039062 -0.132812 0.035157 -0.136719 l 0.339843 -0.027343 l 0.09375 -0.332031 c 0.007813 -0.03125 0.035157 -0.050782 0.066407 -0.054688 z m 1.828124 0 c 0.035157 -0.003906 0.0625 0.019531 0.074219 0.050781 l 0.128907 0.316407 l 0.34375 -0.015626 c 0.074218 -0.007812 0.109374 0.089844 0.050781 0.136719 l -0.261719 0.21875 l 0.121094 0.320313 c 0.027344 0.070312 -0.050782 0.132812 -0.113282 0.09375 l -0.289062 -0.183594 l -0.269531 0.21875 c -0.058594 0.042969 -0.140625 -0.007812 -0.125 -0.082031 l 0.085937 -0.335938 l -0.285156 -0.1875 c -0.0625 -0.039062 -0.039062 -0.132812 0.035156 -0.136719 l 0.34375 -0.027343 l 0.089844 -0.332031 c 0.007812 -0.03125 0.035156 -0.050782 0.070312 -0.054688 z m -11.894531 0.386719 h 6.773438 c 0.171875 0.003906 0.308593 0.140625 0.3125 0.3125 c -0.003907 0.171875 -0.140625 0.308593 -0.3125 0.3125 h -6.773438 c -0.171875 -0.003907 -0.308593 -0.140625 -0.3125 -0.3125 c 0.003907 -0.171875 0.140625 -0.308594 0.3125 -0.3125 z m 0 1.316406 h 6.773438 c 0.171875 0 0.308593 0.140625 0.3125 0.308594 c -0.003907 0.171875 -0.140625 0.3125 -0.3125 0.3125 h -6.773438 c -0.171875 0 -0.308593 -0.140625 -0.3125 -0.3125 c 0.003907 -0.167969 0.140625 -0.308594 0.3125 -0.308594 z m 0 0"/>
</svg>
