<?xml version="1.0" encoding="UTF-8"?>
<svg height="16px" viewBox="0 0 16 16" width="16px" xmlns="http://www.w3.org/2000/svg">
    <path d="m 7.996094 11.988281 c -0.703125 0 -1.355469 0.371094 -1.714844 0.972657 h -3.285156 c -0.554688 0 -1 0.449218 -1 1 c 0 0.550781 0.445312 1 1 1 h 3.246094 c 0.351562 0.640624 1.023437 1.035156 1.753906 1.039062 c 0.726562 -0.003906 1.398437 -0.398438 1.75 -1.039062 h 3.261718 c 0.550782 0 1 -0.449219 1 -1 c 0 -0.550782 -0.449218 -1 -1 -1 h -3.292968 c -0.363282 -0.601563 -1.015625 -0.972657 -1.71875 -0.972657 z m 0 1 c 0.554687 0 1.003906 0.449219 1.003906 1.007813 c 0 0.554687 -0.449219 1.003906 -1.003906 1.003906 c -0.558594 0 -1.007813 -0.449219 -1.007813 -1.003906 c 0 -0.558594 0.449219 -1.007813 1.007813 -1.007813 z m 0 0"/>
    <path d="m 6.992188 10.5 h 2 v 2 h -2 z m 0 0"/>
    <path d="m 3.007812 -0.0117188 c -1.660156 0 -2.9999995 1.2343748 -2.9999995 2.7656248 v 6.457032 c 0 1.53125 1.3398435 2.765624 2.9999995 2.765624 h 10 c 1.660157 0 3 -1.234374 3 -2.765624 v -6.457032 c 0 -1.53125 -1.339843 -2.7656248 -3 -2.7656248 z m 0 1.8437498 h 10 c 0.554688 0 1 0.410157 1 0.921875 v 6.457032 c 0 0.511718 -0.445312 0.921874 -1 0.921874 h -10 c -0.554687 0 -1 -0.410156 -1 -0.921874 v -6.457032 c 0 -0.511718 0.445313 -0.921875 1 -0.921875 z m 0 0"/>
</svg>
