<?xml version="1.0" encoding="UTF-8"?>
<svg height="16px" viewBox="0 0 16 16" width="16px" xmlns="http://www.w3.org/2000/svg">
    <path d="m 15.175781 13.605469 c 0 1.316406 -0.964843 2.394531 -2.144531 2.394531 h -10.0625 c -1.179688 0 -2.144531 -1.078125 -2.144531 -2.394531 c 0 -0.804688 0.359375 -1.519531 0.914062 -1.953125 l 5.351563 -4.785156 c 0.101562 -0.085938 0.230468 0.054687 0.160156 0.167968 l -1.964844 3.933594 c -0.054687 0.109375 0.015625 0.246094 0.128906 0.246094 h 7.617188 c 1.179688 0 2.144531 1.078125 2.144531 2.390625 z m 0 -11.210938 c 0 0.804688 -0.359375 1.519531 -0.914062 1.953125 l -5.351563 4.785156 c -0.101562 0.085938 -0.230468 -0.054687 -0.160156 -0.167968 l 1.964844 -3.933594 c 0.054687 -0.109375 -0.015625 -0.246094 -0.128906 -0.246094 h -7.617188 c -1.179688 0 -2.144531 -1.074218 -2.144531 -2.390625 c 0 -1.316406 0.964843 -2.394531 2.144531 -2.394531 h 10.0625 c 1.179688 0 2.144531 1.078125 2.144531 2.394531 z m 0 0"/>
</svg>
