<?xml version="1.0" encoding="UTF-8"?>
<svg height="128px" viewBox="0 0 128 128" width="128px" xmlns="http://www.w3.org/2000/svg" xmlns:xlink="http://www.w3.org/1999/xlink">
    <linearGradient id="a" gradientTransform="matrix(0.45451 0 0 0.455522 -1210.292114 616.172607)" gradientUnits="userSpaceOnUse" x1="2689.251953" x2="2918.069824" y1="-1106.802979" y2="-1106.802979">
        <stop offset="0" stop-color="#62a0ea"/>
        <stop offset="0.0576991" stop-color="#afd4ff"/>
        <stop offset="0.122204" stop-color="#62a0ea"/>
        <stop offset="0.873306" stop-color="#62a0ea"/>
        <stop offset="0.955997" stop-color="#c0d5ea"/>
        <stop offset="1" stop-color="#62a0ea"/>
    </linearGradient>
    <path d="m 21.976562 12 c -5.527343 0 -9.976562 4.460938 -9.976562 10 v 86.03125 c 0 5.542969 4.449219 10 9.976562 10 h 84.042969 c 5.53125 0 9.980469 -4.457031 9.980469 -10 v -72.085938 c 0 -6.628906 -5.359375 -12 -11.972656 -12 h -46.027344 c -2.453125 0 -4.695312 -1.386718 -5.796875 -3.582031 l -1.503906 -2.992187 c -1.65625 -3.292969 -5.019531 -5.371094 -8.699219 -5.371094 z m 0 0" fill="#438de6"/>
    <path d="m 65.976562 36 c -2.746093 0 -5.226562 1.101562 -7.027343 2.890625 c -2.273438 2.253906 -5.382813 5.109375 -8.632813 5.109375 h -28.339844 c -5.527343 0 -9.976562 4.460938 -9.976562 10 v 54.03125 c 0 5.542969 4.449219 10 9.976562 10 h 84.042969 c 5.53125 0 9.980469 -4.457031 9.980469 -10 v -62.03125 c 0 -5.539062 -4.449219 -10 -9.980469 -10 z m 0 0" fill="url(#a)"/>
    <path d="m 65.976562 32 c -2.746093 0 -5.226562 1.101562 -7.027343 2.890625 c -2.273438 2.253906 -5.382813 5.109375 -8.632813 5.109375 h -28.339844 c -5.527343 0 -9.976562 4.460938 -9.976562 10 v 55.976562 c 0 5.539063 4.449219 10 9.976562 10 h 84.042969 c 5.53125 0 9.980469 -4.460937 9.980469 -10 v -63.976562 c 0 -5.539062 -4.449219 -10 -9.980469 -10 z m 0 0" fill="#a4caee"/>
    <path d="m 48 60 h 32 v 32 h -32 z m 0 0" fill="#438de6"/>
    <path d="m 69.496094 85 c 0.644531 1.050781 1.484375 1.824219 2.964844 1.824219 c 1.246093 0 2.042968 -0.621094 2.042968 -1.480469 c 0 -1.03125 -0.816406 -1.398438 -2.1875 -1.996094 l -0.753906 -0.324218 c -2.167969 -0.921876 -3.609375 -2.082032 -3.609375 -4.53125 c 0 -2.253907 1.71875 -3.972657 4.402344 -3.972657 c 1.910156 0 3.285156 0.667969 4.277343 2.410157 l -2.34375 1.503906 c -0.515624 -0.925782 -1.070312 -1.289063 -1.933593 -1.289063 c -0.878907 0 -1.4375 0.558594 -1.4375 1.289063 c 0 0.902344 0.558593 1.265625 1.847656 1.824218 l 0.75 0.324219 c 2.554687 1.09375 4 2.210938 4 4.722657 c 0 2.707031 -2.128906 4.191406 -4.984375 4.191406 c -2.792969 0 -4.597656 -1.332032 -5.480469 -3.078125 z m -10.621094 0.261719 c 0.472656 0.835937 0.902344 1.546875 1.933594 1.546875 c 0.988281 0 1.609375 -0.386719 1.609375 -1.890625 v -10.226563 h 3.007812 v 10.265625 c 0 3.113281 -1.824219 4.53125 -4.488281 4.53125 c -2.410156 0 -3.804688 -1.246093 -4.511719 -2.746093 z m 0 0" fill="#a4caee"/>
</svg>
